testcases/src/test-src-snk-plain/vpc/FCFS-dualcore/golden/vcdTracer.vcd
$date
     May 05, 2020       12:58:03
$end

$version
 SystemC 2.3.1-Accellera --- May  7 2018 11:30:25
$end

$timescale
     1 ns
$end

$scope module SystemC $end
$var wire    8  aaaaa  top.snk [7:0]  $end
$var wire    8  aaaab  top.src [7:0]  $end
$upscope $end
$enddefinitions  $end

$comment
All initial values are dumped below at time 0 sec = 0 timescale units.
$end

$dumpvars
b100000 aaaaa
b1010010 aaaab
$end

#7500000
b1010010 aaaaa
b1110010 aaaab

#15000000
b100000 aaaab

#17500000
b1110010 aaaaa
b1010010 aaaab

#25000000
b100000 aaaab

#27500000
b1010010 aaaaa
b1010010 aaaab

#35000000
b100000 aaaab

#37500000
b1110010 aaaaa
b1010010 aaaab

#45000000
b100000 aaaab

#47500000
b1010010 aaaaa
b1010010 aaaab

#55000000
b100000 aaaab

#57500000
b1110010 aaaaa
b1010010 aaaab

#65000000
b100000 aaaab

#67500000
b1010010 aaaaa
b1010010 aaaab

#75000000
b100000 aaaab

#77500000
b1110010 aaaaa
b1010010 aaaab

#85000000
b100000 aaaab

#87500000
b1010010 aaaaa
b1010010 aaaab

#95000000
b100000 aaaab

#97500000
b1110010 aaaaa
b1010010 aaaab

#105000000
b100000 aaaab

#107500000
b1010010 aaaaa
b1010010 aaaab

#115000000
b100000 aaaab

#117500000
b1110010 aaaaa
b1010010 aaaab

#125000000
b100000 aaaab

#127500000
b1010010 aaaaa
b1010010 aaaab

#135000000
b100000 aaaab

#137500000
b1110010 aaaaa
b1010010 aaaab

#145000000
b100000 aaaab

#147500000
b1010010 aaaaa
b1010010 aaaab

#155000000
b100000 aaaab

#157500000
b1110010 aaaaa
b1010010 aaaab

#165000000
b100000 aaaab

#167500000
b1010010 aaaaa
b1010010 aaaab

#175000000
b100000 aaaab

#177500000
b1110010 aaaaa
b1010010 aaaab

#185000000
b100000 aaaab

#187500000
b1010010 aaaaa
b1010010 aaaab

#195000000
b100000 aaaab

#197500000
b1110010 aaaaa
b1010010 aaaab

#205000000
b100000 aaaab

#207500000
b1010010 aaaaa
b1010010 aaaab

#215000000
b100000 aaaab

#217500000
b1110010 aaaaa
b1010010 aaaab

#225000000
b100000 aaaab

#227500000
b1010010 aaaaa
b1010010 aaaab

#235000000
b100000 aaaab

#237500000
b1110010 aaaaa
b1010010 aaaab

#245000000
b100000 aaaab

#247500000
b1010010 aaaaa
b1010010 aaaab

#255000000
b100000 aaaab

#257500000
b1110010 aaaaa
b1010010 aaaab

#265000000
b100000 aaaab

#267500000
b1010010 aaaaa
b1010010 aaaab

#275000000
b100000 aaaab

#277500000
b1110010 aaaaa
b1010010 aaaab

#285000000
b100000 aaaab

#287500000
b1010010 aaaaa
b1010010 aaaab

#295000000
b100000 aaaab

#297500000
b1110010 aaaaa
b1010010 aaaab

#305000000
b100000 aaaab

#307500000
b1010010 aaaaa
b1010010 aaaab

#315000000
b100000 aaaab

#317500000
b1110010 aaaaa
b1010010 aaaab

#325000000
b100000 aaaab

#327500000
b1010010 aaaaa
b1010010 aaaab

#335000000
b100000 aaaab

#337500000
b1110010 aaaaa
b1010010 aaaab

#345000000
b100000 aaaab

#347500000
b1010010 aaaaa
b1010010 aaaab

#355000000
b100000 aaaab

#357500000
b1110010 aaaaa
b1010010 aaaab

#365000000
b100000 aaaab

#367500000
b1010010 aaaaa
b1010010 aaaab

#375000000
b100000 aaaab

#377500000
b1110010 aaaaa
b1010010 aaaab

#385000000
b100000 aaaab

#387500000
b1010010 aaaaa
b1010010 aaaab

#395000000
b100000 aaaab

#397500000
b1110010 aaaaa
b1010010 aaaab

#405000000
b100000 aaaab

#407500000
b1010010 aaaaa
b1010010 aaaab

#415000000
b100000 aaaab

#417500000
b1110010 aaaaa
b1010010 aaaab

#425000000
b100000 aaaab

#427500000
b1010010 aaaaa
b1010010 aaaab

#435000000
b100000 aaaab

#437500000
b1110010 aaaaa
b1010010 aaaab

#445000000
b100000 aaaab

#447500000
b1010010 aaaaa
b1010010 aaaab

#455000000
b100000 aaaab

#457500000
b1110010 aaaaa
b1010010 aaaab

#465000000
b100000 aaaab

#467500000
b1010010 aaaaa
b1010010 aaaab

#475000000
b100000 aaaab

#477500000
b1110010 aaaaa
b1010010 aaaab

#485000000
b100000 aaaab

#487500000
b1010010 aaaaa
b1010010 aaaab

#495000000
b100000 aaaab

#497500000
b1110010 aaaaa
b1010010 aaaab

#505000000
b100000 aaaab

#507500000
b1010010 aaaaa
b1010010 aaaab

#515000000
b100000 aaaab

#517500000
b1110010 aaaaa
b1010010 aaaab

#525000000
b100000 aaaab

#527500000
b1010010 aaaaa
b1010010 aaaab

#535000000
b100000 aaaab

#537500000
b1110010 aaaaa
b1010010 aaaab

#545000000
b100000 aaaab

#547500000
b1010010 aaaaa
b1010010 aaaab

#555000000
b100000 aaaab

#557500000
b1110010 aaaaa
b1010010 aaaab

#565000000
b100000 aaaab

#567500000
b1010010 aaaaa
b1010010 aaaab

#575000000
b100000 aaaab

#577500000
b1110010 aaaaa
b1010010 aaaab

#585000000
b100000 aaaab

#587500000
b1010010 aaaaa
b1010010 aaaab

#595000000
b100000 aaaab

#597500000
b1110010 aaaaa
b1010010 aaaab

#605000000
b100000 aaaab

#607500000
b1010010 aaaaa
b1010010 aaaab

#615000000
b100000 aaaab

#617500000
b1110010 aaaaa
b1010010 aaaab

#625000000
b100000 aaaab

#627500000
b1010010 aaaaa
b1010010 aaaab

#635000000
b100000 aaaab

#637500000
b1110010 aaaaa
b1010010 aaaab

#645000000
b100000 aaaab

#647500000
b1010010 aaaaa
b1010010 aaaab

#655000000
b100000 aaaab

#657500000
b1110010 aaaaa
b1010010 aaaab

#665000000
b100000 aaaab

#667500000
b1010010 aaaaa
b1010010 aaaab

#675000000
b100000 aaaab

#677500000
b1110010 aaaaa
b1010010 aaaab

#685000000
b100000 aaaab

#687500000
b1010010 aaaaa
b1010010 aaaab

#695000000
b100000 aaaab

#697500000
b1110010 aaaaa
b1010010 aaaab

#705000000
b100000 aaaab

#707500000
b1010010 aaaaa
b1010010 aaaab

#715000000
b100000 aaaab

#717500000
b1110010 aaaaa
b1010010 aaaab

#725000000
b100000 aaaab

#727500000
b1010010 aaaaa
b1010010 aaaab

#735000000
b100000 aaaab

#737500000
b1110010 aaaaa
b1010010 aaaab

#745000000
b100000 aaaab

#747500000
b1010010 aaaaa
b1010010 aaaab

#755000000
b100000 aaaab

#757500000
b1110010 aaaaa
b1010010 aaaab

#765000000
b100000 aaaab

#767500000
b1010010 aaaaa
b1010010 aaaab

#775000000
b100000 aaaab

#777500000
b1110010 aaaaa
b1010010 aaaab

#785000000
b100000 aaaab

#787500000
b1010010 aaaaa
b1010010 aaaab

#795000000
b100000 aaaab

#797500000
b1110010 aaaaa
b1010010 aaaab

#805000000
b100000 aaaab

#807500000
b1010010 aaaaa
b1010010 aaaab

#815000000
b100000 aaaab

#817500000
b1110010 aaaaa
b1010010 aaaab

#825000000
b100000 aaaab

#827500000
b1010010 aaaaa
b1010010 aaaab

#835000000
b100000 aaaab

#837500000
b1110010 aaaaa
b1010010 aaaab

#845000000
b100000 aaaab

#847500000
b1010010 aaaaa
b1010010 aaaab

#855000000
b100000 aaaab

#857500000
b1110010 aaaaa
b1010010 aaaab

#865000000
b100000 aaaab

#867500000
b1010010 aaaaa
b1010010 aaaab

#875000000
b100000 aaaab

#877500000
b1110010 aaaaa
b1010010 aaaab

#885000000
b100000 aaaab

#887500000
b1010010 aaaaa
b1010010 aaaab

#895000000
b100000 aaaab

#897500000
b1110010 aaaaa
b1010010 aaaab

#905000000
b100000 aaaab

#907500000
b1010010 aaaaa
b1010010 aaaab

#915000000
b100000 aaaab

#917500000
b1110010 aaaaa
b1010010 aaaab

#925000000
b100000 aaaab

#927500000
b1010010 aaaaa
b1010010 aaaab

#935000000
b100000 aaaab

#937500000
b1110010 aaaaa
b1010010 aaaab

#945000000
b100000 aaaab

#947500000
b1010010 aaaaa
b1010010 aaaab

#955000000
b100000 aaaab

#957500000
b1110010 aaaaa
b1010010 aaaab

#965000000
b100000 aaaab

#967500000
b1010010 aaaaa
b1010010 aaaab

#975000000
b100000 aaaab

#977500000
b1110010 aaaaa
b1010010 aaaab

#985000000
b100000 aaaab

#987500000
b1010010 aaaaa
b1010010 aaaab

#995000000
b100000 aaaab

#997500000
b1110010 aaaaa

