testcases/src/test-src-snk-plain/vpc/FCFS-route/golden/CPU.vcd
$date
     Jul 17, 2018       20:27:50
$end

$version
 SystemC 2.3.1-Accellera --- May  7 2018 11:30:25
$end

$timescale
     1 ns
$end

$scope module SystemC $end
$var wire    8  aaaaa  top.snk [7:0]  $end
$var wire    8  aaaab  top.src [7:0]  $end
$var wire    8  aaaac  top.snk.i_0 [7:0]  $end
$var wire    8  aaaad  top.src.o_0 [7:0]  $end
$upscope $end
$enddefinitions  $end

$comment
All initial values are dumped below at time 0 sec = 0 timescale units.
$end

$dumpvars
b100000 aaaaa
b1010010 aaaab
b100000 aaaac
b100000 aaaad
$end

#7500000
b1110111 aaaab
b1010010 aaaad

#7700000
b1010010 aaaab
b100000 aaaad

#9100000
b1110111 aaaac

#15200000
b100000 aaaab
b1010010 aaaac
b1110111 aaaad

#15400000
b1110111 aaaaa
b100000 aaaac
b1010010 aaaad

#15600000
b1010010 aaaaa
b100000 aaaad

#25600000
b100000 aaaaa
b1010010 aaaab

#26300000
b1110111 aaaac

#33100000
b100000 aaaab
b1010010 aaaac
b1110111 aaaad

#33300000
b1110111 aaaaa
b100000 aaaac
b1010010 aaaad

#33500000
b1010010 aaaaa
b100000 aaaad

#43500000
b100000 aaaaa
b1010010 aaaab

#44200000
b1110111 aaaac

#51000000
b100000 aaaab
b1010010 aaaac
b1110111 aaaad

#51200000
b1110111 aaaaa
b100000 aaaac
b1010010 aaaad

#51400000
b1010010 aaaaa
b100000 aaaad

#61400000
b100000 aaaaa
b1010010 aaaab

#62100000
b1110111 aaaac

#68900000
b100000 aaaab
b1010010 aaaac
b1110111 aaaad

#69100000
b1110111 aaaaa
b100000 aaaac
b1010010 aaaad

#69300000
b1010010 aaaaa
b100000 aaaad

#79300000
b100000 aaaaa
b1010010 aaaab

#80000000
b1110111 aaaac

#86800000
b100000 aaaab
b1010010 aaaac
b1110111 aaaad

#87000000
b1110111 aaaaa
b100000 aaaac
b1010010 aaaad

#87200000
b1010010 aaaaa
b100000 aaaad

#97200000
b100000 aaaaa
b1010010 aaaab

#97900000
b1110111 aaaac

#104700000
b100000 aaaab
b1010010 aaaac
b1110111 aaaad

#104900000
b1110111 aaaaa
b100000 aaaac
b1010010 aaaad

#105100000
b1010010 aaaaa
b100000 aaaad

#115100000
b100000 aaaaa
b1010010 aaaab

#115800000
b1110111 aaaac

#122600000
b100000 aaaab
b1010010 aaaac
b1110111 aaaad

#122800000
b1110111 aaaaa
b100000 aaaac
b1010010 aaaad

#123000000
b1010010 aaaaa
b100000 aaaad

#133000000
b100000 aaaaa
b1010010 aaaab

#133700000
b1110111 aaaac

#140500000
b100000 aaaab
b1010010 aaaac
b1110111 aaaad

#140700000
b1110111 aaaaa
b100000 aaaac
b1010010 aaaad

#140900000
b1010010 aaaaa
b100000 aaaad

#150900000
b100000 aaaaa
b1010010 aaaab

#151600000
b1110111 aaaac

#158400000
b100000 aaaab
b1010010 aaaac
b1110111 aaaad

#158600000
b1110111 aaaaa
b100000 aaaac
b1010010 aaaad

#158800000
b1010010 aaaaa
b100000 aaaad

#168800000
b100000 aaaaa
b1010010 aaaab

#169500000
b1110111 aaaac

#176300000
b100000 aaaab
b1010010 aaaac
b1110111 aaaad

#176500000
b1110111 aaaaa
b100000 aaaac
b1010010 aaaad

#176700000
b1010010 aaaaa
b100000 aaaad

#186700000
b100000 aaaaa
b1010010 aaaab

#187400000
b1110111 aaaac

#194200000
b100000 aaaab
b1010010 aaaac
b1110111 aaaad

#194400000
b1110111 aaaaa
b100000 aaaac
b1010010 aaaad

#194600000
b1010010 aaaaa
b100000 aaaad

#204600000
b100000 aaaaa
b1010010 aaaab

#205300000
b1110111 aaaac

#212100000
b100000 aaaab
b1010010 aaaac
b1110111 aaaad

#212300000
b1110111 aaaaa
b100000 aaaac
b1010010 aaaad

#212500000
b1010010 aaaaa
b100000 aaaad

#222500000
b100000 aaaaa
b1010010 aaaab

#223200000
b1110111 aaaac

#230000000
b100000 aaaab
b1010010 aaaac
b1110111 aaaad

#230200000
b1110111 aaaaa
b100000 aaaac
b1010010 aaaad

#230400000
b1010010 aaaaa
b100000 aaaad

#240400000
b100000 aaaaa
b1010010 aaaab

#241100000
b1110111 aaaac

#247900000
b100000 aaaab
b1010010 aaaac
b1110111 aaaad

#248100000
b1110111 aaaaa
b100000 aaaac
b1010010 aaaad

#248300000
b1010010 aaaaa
b100000 aaaad

#258300000
b100000 aaaaa
b1010010 aaaab

#259000000
b1110111 aaaac

#265800000
b100000 aaaab
b1010010 aaaac
b1110111 aaaad

#266000000
b1110111 aaaaa
b100000 aaaac
b1010010 aaaad

#266200000
b1010010 aaaaa
b100000 aaaad

#276200000
b100000 aaaaa
b1010010 aaaab

#276900000
b1110111 aaaac

#283700000
b100000 aaaab
b1010010 aaaac
b1110111 aaaad

#283900000
b1110111 aaaaa
b100000 aaaac
b1010010 aaaad

#284100000
b1010010 aaaaa
b100000 aaaad

#294100000
b100000 aaaaa
b1010010 aaaab

#294800000
b1110111 aaaac

#301600000
b100000 aaaab
b1010010 aaaac
b1110111 aaaad

#301800000
b1110111 aaaaa
b100000 aaaac
b1010010 aaaad

#302000000
b1010010 aaaaa
b100000 aaaad

#312000000
b100000 aaaaa
b1010010 aaaab

#312700000
b1110111 aaaac

#319500000
b100000 aaaab
b1010010 aaaac
b1110111 aaaad

#319700000
b1110111 aaaaa
b100000 aaaac
b1010010 aaaad

#319900000
b1010010 aaaaa
b100000 aaaad

#329900000
b100000 aaaaa
b1010010 aaaab

#330600000
b1110111 aaaac

#337400000
b100000 aaaab
b1010010 aaaac
b1110111 aaaad

#337600000
b1110111 aaaaa
b100000 aaaac
b1010010 aaaad

#337800000
b1010010 aaaaa
b100000 aaaad

#347800000
b100000 aaaaa
b1010010 aaaab

#348500000
b1110111 aaaac

#355300000
b100000 aaaab
b1010010 aaaac
b1110111 aaaad

#355500000
b1110111 aaaaa
b100000 aaaac
b1010010 aaaad

#355700000
b1010010 aaaaa
b100000 aaaad

#365700000
b100000 aaaaa
b1010010 aaaab

#366400000
b1110111 aaaac

#373200000
b100000 aaaab
b1010010 aaaac
b1110111 aaaad

#373400000
b1110111 aaaaa
b100000 aaaac
b1010010 aaaad

#373600000
b1010010 aaaaa
b100000 aaaad

#383600000
b100000 aaaaa
b1010010 aaaab

#384300000
b1110111 aaaac

#391100000
b100000 aaaab
b1010010 aaaac
b1110111 aaaad

#391300000
b1110111 aaaaa
b100000 aaaac
b1010010 aaaad

#391500000
b1010010 aaaaa
b100000 aaaad

#401500000
b100000 aaaaa
b1010010 aaaab

#402200000
b1110111 aaaac

#409000000
b100000 aaaab
b1010010 aaaac
b1110111 aaaad

#409200000
b1110111 aaaaa
b100000 aaaac
b1010010 aaaad

#409400000
b1010010 aaaaa
b100000 aaaad

#419400000
b100000 aaaaa
b1010010 aaaab

#420100000
b1110111 aaaac

#426900000
b100000 aaaab
b1010010 aaaac
b1110111 aaaad

#427100000
b1110111 aaaaa
b100000 aaaac
b1010010 aaaad

#427300000
b1010010 aaaaa
b100000 aaaad

#437300000
b100000 aaaaa
b1010010 aaaab

#438000000
b1110111 aaaac

#444800000
b100000 aaaab
b1010010 aaaac
b1110111 aaaad

#445000000
b1110111 aaaaa
b100000 aaaac
b1010010 aaaad

#445200000
b1010010 aaaaa
b100000 aaaad

#455200000
b100000 aaaaa
b1010010 aaaab

#455900000
b1110111 aaaac

#462700000
b100000 aaaab
b1010010 aaaac
b1110111 aaaad

#462900000
b1110111 aaaaa
b100000 aaaac
b1010010 aaaad

#463100000
b1010010 aaaaa
b100000 aaaad

#473100000
b100000 aaaaa
b1010010 aaaab

#473800000
b1110111 aaaac

#480600000
b100000 aaaab
b1010010 aaaac
b1110111 aaaad

#480800000
b1110111 aaaaa
b100000 aaaac
b1010010 aaaad

#481000000
b1010010 aaaaa
b100000 aaaad

#491000000
b100000 aaaaa
b1010010 aaaab

#491700000
b1110111 aaaac

#498500000
b100000 aaaab
b1010010 aaaac
b1110111 aaaad

#498700000
b1110111 aaaaa
b100000 aaaac
b1010010 aaaad

#498900000
b1010010 aaaaa
b100000 aaaad

#508900000
b100000 aaaaa
b1010010 aaaab

#509600000
b1110111 aaaac

#516400000
b100000 aaaab
b1010010 aaaac
b1110111 aaaad

#516600000
b1110111 aaaaa
b100000 aaaac
b1010010 aaaad

#516800000
b1010010 aaaaa
b100000 aaaad

#526800000
b100000 aaaaa
b1010010 aaaab

#527500000
b1110111 aaaac

#534300000
b100000 aaaab
b1010010 aaaac
b1110111 aaaad

#534500000
b1110111 aaaaa
b100000 aaaac
b1010010 aaaad

#534700000
b1010010 aaaaa
b100000 aaaad

#544700000
b100000 aaaaa
b1010010 aaaab

#545400000
b1110111 aaaac

#552200000
b100000 aaaab
b1010010 aaaac
b1110111 aaaad

#552400000
b1110111 aaaaa
b100000 aaaac
b1010010 aaaad

#552600000
b1010010 aaaaa
b100000 aaaad

#562600000
b100000 aaaaa
b1010010 aaaab

#563300000
b1110111 aaaac

#570100000
b100000 aaaab
b1010010 aaaac
b1110111 aaaad

#570300000
b1110111 aaaaa
b100000 aaaac
b1010010 aaaad

#570500000
b1010010 aaaaa
b100000 aaaad

#580500000
b100000 aaaaa
b1010010 aaaab

#581200000
b1110111 aaaac

#588000000
b100000 aaaab
b1010010 aaaac
b1110111 aaaad

#588200000
b1110111 aaaaa
b100000 aaaac
b1010010 aaaad

#588400000
b1010010 aaaaa
b100000 aaaad

#598400000
b100000 aaaaa
b1010010 aaaab

#599100000
b1110111 aaaac

#605900000
b100000 aaaab
b1010010 aaaac
b1110111 aaaad

#606100000
b1110111 aaaaa
b100000 aaaac
b1010010 aaaad

#606300000
b1010010 aaaaa
b100000 aaaad

#616300000
b100000 aaaaa
b1010010 aaaab

#617000000
b1110111 aaaac

#623800000
b100000 aaaab
b1010010 aaaac
b1110111 aaaad

#624000000
b1110111 aaaaa
b100000 aaaac
b1010010 aaaad

#624200000
b1010010 aaaaa
b100000 aaaad

#634200000
b100000 aaaaa
b1010010 aaaab

#634900000
b1110111 aaaac

#641700000
b100000 aaaab
b1010010 aaaac
b1110111 aaaad

#641900000
b1110111 aaaaa
b100000 aaaac
b1010010 aaaad

#642100000
b1010010 aaaaa
b100000 aaaad

#652100000
b100000 aaaaa
b1010010 aaaab

#652800000
b1110111 aaaac

#659600000
b100000 aaaab
b1010010 aaaac
b1110111 aaaad

#659800000
b1110111 aaaaa
b100000 aaaac
b1010010 aaaad

#660000000
b1010010 aaaaa
b100000 aaaad

#670000000
b100000 aaaaa
b1010010 aaaab

#670700000
b1110111 aaaac

#677500000
b100000 aaaab
b1010010 aaaac
b1110111 aaaad

#677700000
b1110111 aaaaa
b100000 aaaac
b1010010 aaaad

#677900000
b1010010 aaaaa
b100000 aaaad

#687900000
b100000 aaaaa
b1010010 aaaab

#688600000
b1110111 aaaac

#695400000
b100000 aaaab
b1010010 aaaac
b1110111 aaaad

#695600000
b1110111 aaaaa
b100000 aaaac
b1010010 aaaad

#695800000
b1010010 aaaaa
b100000 aaaad

#705800000
b100000 aaaaa
b1010010 aaaab

#706500000
b1110111 aaaac

#713300000
b100000 aaaab
b1010010 aaaac
b1110111 aaaad

#713500000
b1110111 aaaaa
b100000 aaaac
b1010010 aaaad

#713700000
b1010010 aaaaa
b100000 aaaad

#723700000
b100000 aaaaa
b1010010 aaaab

#724400000
b1110111 aaaac

#731200000
b100000 aaaab
b1010010 aaaac
b1110111 aaaad

#731400000
b1110111 aaaaa
b100000 aaaac
b1010010 aaaad

#731600000
b1010010 aaaaa
b100000 aaaad

#741600000
b100000 aaaaa
b1010010 aaaab

#742300000
b1110111 aaaac

#749100000
b100000 aaaab
b1010010 aaaac
b1110111 aaaad

#749300000
b1110111 aaaaa
b100000 aaaac
b1010010 aaaad

#749500000
b1010010 aaaaa
b100000 aaaad

#759500000
b100000 aaaaa
b1010010 aaaab

#760200000
b1110111 aaaac

#767000000
b100000 aaaab
b1010010 aaaac
b1110111 aaaad

#767200000
b1110111 aaaaa
b100000 aaaac
b1010010 aaaad

#767400000
b1010010 aaaaa
b100000 aaaad

#777400000
b100000 aaaaa
b1010010 aaaab

#778100000
b1110111 aaaac

#784900000
b100000 aaaab
b1010010 aaaac
b1110111 aaaad

#785100000
b1110111 aaaaa
b100000 aaaac
b1010010 aaaad

#785300000
b1010010 aaaaa
b100000 aaaad

#795300000
b100000 aaaaa
b1010010 aaaab

#796000000
b1110111 aaaac

#802800000
b100000 aaaab
b1010010 aaaac
b1110111 aaaad

#803000000
b1110111 aaaaa
b100000 aaaac
b1010010 aaaad

#803200000
b1010010 aaaaa
b100000 aaaad

#813200000
b100000 aaaaa
b1010010 aaaab

#813900000
b1110111 aaaac

#820700000
b100000 aaaab
b1010010 aaaac
b1110111 aaaad

#820900000
b1110111 aaaaa
b100000 aaaac
b1010010 aaaad

#821100000
b1010010 aaaaa
b100000 aaaad

#831100000
b100000 aaaaa
b1010010 aaaab

#831800000
b1110111 aaaac

#838600000
b100000 aaaab
b1010010 aaaac
b1110111 aaaad

#838800000
b1110111 aaaaa
b100000 aaaac
b1010010 aaaad

#839000000
b1010010 aaaaa
b100000 aaaad

#849000000
b100000 aaaaa
b1010010 aaaab

#849700000
b1110111 aaaac

#856500000
b100000 aaaab
b1010010 aaaac
b1110111 aaaad

#856700000
b1110111 aaaaa
b100000 aaaac
b1010010 aaaad

#856900000
b1010010 aaaaa
b100000 aaaad

#866900000
b100000 aaaaa
b1010010 aaaab

#867600000
b1110111 aaaac

#874400000
b100000 aaaab
b1010010 aaaac
b1110111 aaaad

#874600000
b1110111 aaaaa
b100000 aaaac
b1010010 aaaad

#874800000
b1010010 aaaaa
b100000 aaaad

#884800000
b100000 aaaaa
b1010010 aaaab

#885500000
b1110111 aaaac

#892300000
b100000 aaaab
b1010010 aaaac
b1110111 aaaad

#892500000
b1110111 aaaaa
b100000 aaaac
b1010010 aaaad

#892700000
b1010010 aaaaa
b100000 aaaad

#902700000
b100000 aaaaa
b1010010 aaaab

#903400000
b1110111 aaaac

#910200000
b100000 aaaab
b1010010 aaaac
b1110111 aaaad

#910400000
b1110111 aaaaa
b100000 aaaac
b1010010 aaaad

#910600000
b1010010 aaaaa
b100000 aaaad

#920600000
b100000 aaaaa
b1010010 aaaab

#921300000
b1110111 aaaac

#928100000
b100000 aaaab
b1010010 aaaac
b1110111 aaaad

#928300000
b1110111 aaaaa
b100000 aaaac
b1010010 aaaad

#928500000
b1010010 aaaaa
b100000 aaaad

#938500000
b100000 aaaaa
b1010010 aaaab

#939200000
b1110111 aaaac

#946000000
b100000 aaaab
b1010010 aaaac
b1110111 aaaad

#946200000
b1110111 aaaaa
b100000 aaaac
b1010010 aaaad

#946400000
b1010010 aaaaa
b100000 aaaad

#956400000
b100000 aaaaa
b1010010 aaaab

#957100000
b1110111 aaaac

#963900000
b100000 aaaab
b1010010 aaaac
b1110111 aaaad

#964100000
b1110111 aaaaa
b100000 aaaac
b1010010 aaaad

#964300000
b1010010 aaaaa
b100000 aaaad

#974300000
b100000 aaaaa
b1010010 aaaab

#975000000
b1110111 aaaac

#981800000
b100000 aaaab
b1010010 aaaac
b1110111 aaaad

#982000000
b1110111 aaaaa
b100000 aaaac
b1010010 aaaad

#982200000
b1010010 aaaaa
b100000 aaaad

#992200000
b100000 aaaaa
b1010010 aaaab

#992900000
b1110111 aaaac

#999700000
b100000 aaaab
b1010010 aaaac
b1110111 aaaad

#999900000
b1110111 aaaaa
b100000 aaaac
b1010010 aaaad

#1000100000
b1010010 aaaaa
b100000 aaaad

#1010100000
b100000 aaaaa
b1010010 aaaab

#1010800000
b1110111 aaaac

#1017600000
b100000 aaaab
b1010010 aaaac
b1110111 aaaad

#1017800000
b1110111 aaaaa
b100000 aaaac
b1010010 aaaad

#1018000000
b1010010 aaaaa
b100000 aaaad

#1028000000
b100000 aaaaa
b1010010 aaaab

#1028700000
b1110111 aaaac

#1035500000
b100000 aaaab
b1010010 aaaac
b1110111 aaaad

#1035700000
b1110111 aaaaa
b100000 aaaac
b1010010 aaaad

#1035900000
b1010010 aaaaa
b100000 aaaad

#1045900000
b100000 aaaaa
b1010010 aaaab

#1046600000
b1110111 aaaac

#1053400000
b100000 aaaab
b1010010 aaaac
b1110111 aaaad

#1053600000
b1110111 aaaaa
b100000 aaaac
b1010010 aaaad

#1053800000
b1010010 aaaaa
b100000 aaaad

#1063800000
b100000 aaaaa
b1010010 aaaab

#1064500000
b1110111 aaaac

#1071300000
b100000 aaaab
b1010010 aaaac
b1110111 aaaad

#1071500000
b1110111 aaaaa
b100000 aaaac
b1010010 aaaad

#1071700000
b1010010 aaaaa
b100000 aaaad

#1081700000
b100000 aaaaa
b1010010 aaaab

#1082400000
b1110111 aaaac

#1089200000
b100000 aaaab
b1010010 aaaac
b1110111 aaaad

#1089400000
b1110111 aaaaa
b100000 aaaac
b1010010 aaaad

#1089600000
b1010010 aaaaa
b100000 aaaad

#1099600000
b100000 aaaaa
b1010010 aaaab

#1100300000
b1110111 aaaac

#1107100000
b100000 aaaab
b1010010 aaaac
b1110111 aaaad

#1107300000
b1110111 aaaaa
b100000 aaaac
b1010010 aaaad

#1107500000
b1010010 aaaaa
b100000 aaaad

#1117500000
b100000 aaaaa
b1010010 aaaab

#1118200000
b1110111 aaaac

#1125000000
b100000 aaaab
b1010010 aaaac
b1110111 aaaad

#1125200000
b1110111 aaaaa
b100000 aaaac
b1010010 aaaad

#1125400000
b1010010 aaaaa
b100000 aaaad

#1135400000
b100000 aaaaa
b1010010 aaaab

#1136100000
b1110111 aaaac

#1142900000
b100000 aaaab
b1010010 aaaac
b1110111 aaaad

#1143100000
b1110111 aaaaa
b100000 aaaac
b1010010 aaaad

#1143300000
b1010010 aaaaa
b100000 aaaad

#1153300000
b100000 aaaaa
b1010010 aaaab

#1154000000
b1110111 aaaac

#1160800000
b100000 aaaab
b1010010 aaaac
b1110111 aaaad

#1161000000
b1110111 aaaaa
b100000 aaaac
b1010010 aaaad

#1161200000
b1010010 aaaaa
b100000 aaaad

#1171200000
b100000 aaaaa
b1010010 aaaab

#1171900000
b1110111 aaaac

#1178700000
b100000 aaaab
b1010010 aaaac
b1110111 aaaad

#1178900000
b1110111 aaaaa
b100000 aaaac
b1010010 aaaad

#1179100000
b1010010 aaaaa
b100000 aaaad

#1189100000
b100000 aaaaa
b1010010 aaaab

#1189800000
b1110111 aaaac

#1196600000
b100000 aaaab
b1010010 aaaac
b1110111 aaaad

#1196800000
b1110111 aaaaa
b100000 aaaac
b1010010 aaaad

#1197000000
b1010010 aaaaa
b100000 aaaad

#1207000000
b100000 aaaaa
b1010010 aaaab

#1207700000
b1110111 aaaac

#1214500000
b100000 aaaab
b1010010 aaaac
b1110111 aaaad

#1214700000
b1110111 aaaaa
b100000 aaaac
b1010010 aaaad

#1214900000
b1010010 aaaaa
b100000 aaaad

#1224900000
b100000 aaaaa
b1010010 aaaab

#1225600000
b1110111 aaaac

#1232400000
b100000 aaaab
b1010010 aaaac
b1110111 aaaad

#1232600000
b1110111 aaaaa
b100000 aaaac
b1010010 aaaad

#1232800000
b1010010 aaaaa
b100000 aaaad

#1242800000
b100000 aaaaa
b1010010 aaaab

#1243500000
b1110111 aaaac

#1250300000
b100000 aaaab
b1010010 aaaac
b1110111 aaaad

#1250500000
b1110111 aaaaa
b100000 aaaac
b1010010 aaaad

#1250700000
b1010010 aaaaa
b100000 aaaad

#1260700000
b100000 aaaaa
b1010010 aaaab

#1261400000
b1110111 aaaac

#1268200000
b100000 aaaab
b1010010 aaaac
b1110111 aaaad

#1268400000
b1110111 aaaaa
b100000 aaaac
b1010010 aaaad

#1268600000
b1010010 aaaaa
b100000 aaaad

#1278600000
b100000 aaaaa
b1010010 aaaab

#1279300000
b1110111 aaaac

#1286100000
b100000 aaaab
b1010010 aaaac
b1110111 aaaad

#1286300000
b1110111 aaaaa
b100000 aaaac
b1010010 aaaad

#1286500000
b1010010 aaaaa
b100000 aaaad

#1296500000
b100000 aaaaa
b1010010 aaaab

#1297200000
b1110111 aaaac

#1304000000
b100000 aaaab
b1010010 aaaac
b1110111 aaaad

#1304200000
b1110111 aaaaa
b100000 aaaac
b1010010 aaaad

#1304400000
b1010010 aaaaa
b100000 aaaad

#1314400000
b100000 aaaaa
b1010010 aaaab

#1315100000
b1110111 aaaac

#1321900000
b100000 aaaab
b1010010 aaaac
b1110111 aaaad

#1322100000
b1110111 aaaaa
b100000 aaaac
b1010010 aaaad

#1322300000
b1010010 aaaaa
b100000 aaaad

#1332300000
b100000 aaaaa
b1010010 aaaab

#1333000000
b1110111 aaaac

#1339800000
b100000 aaaab
b1010010 aaaac
b1110111 aaaad

#1340000000
b1110111 aaaaa
b100000 aaaac
b1010010 aaaad

#1340200000
b1010010 aaaaa
b100000 aaaad

#1350200000
b100000 aaaaa
b1010010 aaaab

#1350900000
b1110111 aaaac

#1357700000
b100000 aaaab
b1010010 aaaac
b1110111 aaaad

#1357900000
b1110111 aaaaa
b100000 aaaac
b1010010 aaaad

#1358100000
b1010010 aaaaa
b100000 aaaad

#1368100000
b100000 aaaaa
b1010010 aaaab

#1368800000
b1110111 aaaac

#1375600000
b100000 aaaab
b1010010 aaaac
b1110111 aaaad

#1375800000
b1110111 aaaaa
b100000 aaaac
b1010010 aaaad

#1376000000
b1010010 aaaaa
b100000 aaaad

#1386000000
b100000 aaaaa
b1010010 aaaab

#1386700000
b1110111 aaaac

#1393500000
b100000 aaaab
b1010010 aaaac
b1110111 aaaad

#1393700000
b1110111 aaaaa
b100000 aaaac
b1010010 aaaad

#1393900000
b1010010 aaaaa
b100000 aaaad

#1403900000
b100000 aaaaa
b1010010 aaaab

#1404600000
b1110111 aaaac

#1411400000
b100000 aaaab
b1010010 aaaac
b1110111 aaaad

#1411600000
b1110111 aaaaa
b100000 aaaac
b1010010 aaaad

#1411800000
b1010010 aaaaa
b100000 aaaad

#1421800000
b100000 aaaaa
b1010010 aaaab

#1422500000
b1110111 aaaac

#1429300000
b100000 aaaab
b1010010 aaaac
b1110111 aaaad

#1429500000
b1110111 aaaaa
b100000 aaaac
b1010010 aaaad

#1429700000
b1010010 aaaaa
b100000 aaaad

#1439700000
b100000 aaaaa
b1010010 aaaab

#1440400000
b1110111 aaaac

#1447200000
b100000 aaaab
b1010010 aaaac
b1110111 aaaad

#1447400000
b1110111 aaaaa
b100000 aaaac
b1010010 aaaad

#1447600000
b1010010 aaaaa
b100000 aaaad

#1457600000
b100000 aaaaa
b1010010 aaaab

#1458300000
b1110111 aaaac

#1465100000
b100000 aaaab
b1010010 aaaac
b1110111 aaaad

#1465300000
b1110111 aaaaa
b100000 aaaac
b1010010 aaaad

#1465500000
b1010010 aaaaa
b100000 aaaad

#1475500000
b100000 aaaaa
b1010010 aaaab

#1476200000
b1110111 aaaac

#1483000000
b100000 aaaab
b1010010 aaaac
b1110111 aaaad

#1483200000
b1110111 aaaaa
b100000 aaaac
b1010010 aaaad

#1483400000
b1010010 aaaaa
b100000 aaaad

#1493400000
b100000 aaaaa
b1010010 aaaab

#1494100000
b1110111 aaaac

#1500900000
b100000 aaaab
b1010010 aaaac
b1110111 aaaad

#1501100000
b1110111 aaaaa
b100000 aaaac
b1010010 aaaad

#1501300000
b1010010 aaaaa
b100000 aaaad

#1511300000
b100000 aaaaa
b1010010 aaaab

#1512000000
b1110111 aaaac

#1518800000
b100000 aaaab
b1010010 aaaac
b1110111 aaaad

#1519000000
b1110111 aaaaa
b100000 aaaac
b1010010 aaaad

#1519200000
b1010010 aaaaa
b100000 aaaad

#1529200000
b100000 aaaaa
b1010010 aaaab

#1529900000
b1110111 aaaac

#1536700000
b100000 aaaab
b1010010 aaaac
b1110111 aaaad

#1536900000
b1110111 aaaaa
b100000 aaaac
b1010010 aaaad

#1537100000
b1010010 aaaaa
b100000 aaaad

#1547100000
b100000 aaaaa
b1010010 aaaab

#1547800000
b1110111 aaaac

#1554600000
b100000 aaaab
b1010010 aaaac
b1110111 aaaad

#1554800000
b1110111 aaaaa
b100000 aaaac
b1010010 aaaad

#1555000000
b1010010 aaaaa
b100000 aaaad

#1565000000
b100000 aaaaa
b1010010 aaaab

#1565700000
b1110111 aaaac

#1572500000
b100000 aaaab
b1010010 aaaac
b1110111 aaaad

#1572700000
b1110111 aaaaa
b100000 aaaac
b1010010 aaaad

#1572900000
b1010010 aaaaa
b100000 aaaad

#1582900000
b100000 aaaaa
b1010010 aaaab

#1583600000
b1110111 aaaac

#1590400000
b100000 aaaab
b1010010 aaaac
b1110111 aaaad

#1590600000
b1110111 aaaaa
b100000 aaaac
b1010010 aaaad

#1590800000
b1010010 aaaaa
b100000 aaaad

#1600800000
b100000 aaaaa
b1010010 aaaab

#1601500000
b1110111 aaaac

#1608300000
b100000 aaaab
b1010010 aaaac
b1110111 aaaad

#1608500000
b1110111 aaaaa
b100000 aaaac
b1010010 aaaad

#1608700000
b1010010 aaaaa
b100000 aaaad

#1618700000
b100000 aaaaa
b1010010 aaaab

#1619400000
b1110111 aaaac

#1626200000
b100000 aaaab
b1010010 aaaac
b1110111 aaaad

#1626400000
b1110111 aaaaa
b100000 aaaac
b1010010 aaaad

#1626600000
b1010010 aaaaa
b100000 aaaad

#1636600000
b100000 aaaaa
b1010010 aaaab

#1637300000
b1110111 aaaac

#1644100000
b100000 aaaab
b1010010 aaaac
b1110111 aaaad

#1644300000
b1110111 aaaaa
b100000 aaaac
b1010010 aaaad

#1644500000
b1010010 aaaaa
b100000 aaaad

#1654500000
b100000 aaaaa
b1010010 aaaab

#1655200000
b1110111 aaaac

#1662000000
b100000 aaaab
b1010010 aaaac
b1110111 aaaad

#1662200000
b1110111 aaaaa
b100000 aaaac
b1010010 aaaad

#1662400000
b1010010 aaaaa
b100000 aaaad

#1672400000
b100000 aaaaa
b1010010 aaaab

#1673100000
b1110111 aaaac

#1679900000
b100000 aaaab
b1010010 aaaac
b1110111 aaaad

#1680100000
b1110111 aaaaa
b100000 aaaac
b1010010 aaaad

#1680300000
b1010010 aaaaa
b100000 aaaad

#1690300000
b100000 aaaaa
b1010010 aaaab

#1691000000
b1110111 aaaac

#1697800000
b100000 aaaab
b1010010 aaaac
b1110111 aaaad

#1698000000
b1110111 aaaaa
b100000 aaaac
b1010010 aaaad

#1698200000
b1010010 aaaaa
b100000 aaaad

#1708200000
b100000 aaaaa
b1010010 aaaab

#1708900000
b1110111 aaaac

#1715700000
b100000 aaaab
b1010010 aaaac
b1110111 aaaad

#1715900000
b1110111 aaaaa
b100000 aaaac
b1010010 aaaad

#1716100000
b1010010 aaaaa
b100000 aaaad

#1726100000
b100000 aaaaa
b1010010 aaaab

#1726800000
b1110111 aaaac

#1733600000
b100000 aaaab
b1010010 aaaac
b1110111 aaaad

#1733800000
b1110111 aaaaa
b100000 aaaac
b1010010 aaaad

#1734000000
b1010010 aaaaa
b100000 aaaad

#1744000000
b100000 aaaaa
b1010010 aaaab

#1744700000
b1110111 aaaac

#1751500000
b100000 aaaab
b1010010 aaaac
b1110111 aaaad

#1751700000
b1110111 aaaaa
b100000 aaaac
b1010010 aaaad

#1751900000
b1010010 aaaaa
b100000 aaaad

#1761900000
b100000 aaaaa
b1010010 aaaab

#1762600000
b1110111 aaaac

#1769400000
b100000 aaaab
b1010010 aaaac
b1110111 aaaad

#1769600000
b1110111 aaaaa
b100000 aaaac
b1010010 aaaad

#1769800000
b1010010 aaaaa
b100000 aaaad

#1779800000
b100000 aaaaa

#1780500000
b1010010 aaaac

#1780700000
b1010010 aaaaa
b100000 aaaac

#1790700000
b100000 aaaaa

