testcases/src/test-src-snk-multicast/vpc/SPNOPRE-route/golden/CPU1.vcd
$date
     Jul 24, 2018       16:17:13
$end

$version
 SystemC 2.3.1-Accellera --- May  7 2018 11:30:25
$end

$timescale
     1 ns
$end

$scope module SystemC $end
$var wire    8  aaaaa  top.foo.snk1 [7:0]  $end
$var wire    8  aaaab  top.foo.snk2 [7:0]  $end
$var wire    8  aaaac  top.foo.src [7:0]  $end
$var wire    8  aaaad  top.foo.snk1.i_0 [7:0]  $end
$var wire    8  aaaae  top.foo.snk2.i_0 [7:0]  $end
$var wire    8  aaaaf  top.foo.src.o_0 [7:0]  $end
$upscope $end
$enddefinitions  $end

$comment
All initial values are dumped below at time 0 sec = 0 timescale units.
$end

$dumpvars
b100000 aaaaa
b100000 aaaab
b1010010 aaaac
b100000 aaaad
b100000 aaaae
b100000 aaaaf
$end

#7500000
b100000 aaaac
b1010010 aaaaf

#7700000
b100000 aaaaf

#9100000
b1010010 aaaad

#9300000
b1010010 aaaaa
b100000 aaaad

#9700000
b1110111 aaaae

#19300000
b100000 aaaaa
b1010010 aaaae

#19500000
b1010010 aaaab
b100000 aaaae

#32000000
b100000 aaaab

#40400000
b1010010 aaaac

#47900000
b100000 aaaac
b1010010 aaaaf

#48100000
b100000 aaaaf

#49500000
b1010010 aaaad

#49700000
b1010010 aaaaa
b100000 aaaad

#50100000
b1110111 aaaae

#59700000
b100000 aaaaa
b1010010 aaaae

#59900000
b1010010 aaaab
b100000 aaaae

#72400000
b100000 aaaab

#80800000
b1010010 aaaac

#88300000
b100000 aaaac
b1010010 aaaaf

#88500000
b100000 aaaaf

#89900000
b1010010 aaaad

#90100000
b1010010 aaaaa
b100000 aaaad

#90500000
b1110111 aaaae

#100100000
b100000 aaaaa
b1010010 aaaae

#100300000
b1010010 aaaab
b100000 aaaae

#112800000
b100000 aaaab

#121200000
b1010010 aaaac

#128700000
b100000 aaaac
b1010010 aaaaf

#128900000
b100000 aaaaf

#130300000
b1010010 aaaad

#130500000
b1010010 aaaaa
b100000 aaaad

#130900000
b1110111 aaaae

#140500000
b100000 aaaaa
b1010010 aaaae

#140700000
b1010010 aaaab
b100000 aaaae

#153200000
b100000 aaaab

#161600000
b1010010 aaaac

#169100000
b100000 aaaac
b1010010 aaaaf

#169300000
b100000 aaaaf

#170700000
b1010010 aaaad

#170900000
b1010010 aaaaa
b100000 aaaad

#171300000
b1110111 aaaae

#180900000
b100000 aaaaa
b1010010 aaaae

#181100000
b1010010 aaaab
b100000 aaaae

#193600000
b100000 aaaab

#202000000
b1010010 aaaac

#209500000
b100000 aaaac
b1010010 aaaaf

#209700000
b100000 aaaaf

#211100000
b1010010 aaaad

#211300000
b1010010 aaaaa
b100000 aaaad

#211700000
b1110111 aaaae

#221300000
b100000 aaaaa
b1010010 aaaae

#221500000
b1010010 aaaab
b100000 aaaae

#234000000
b100000 aaaab

#242400000
b1010010 aaaac

#249900000
b100000 aaaac
b1010010 aaaaf

#250100000
b100000 aaaaf

#251500000
b1010010 aaaad

#251700000
b1010010 aaaaa
b100000 aaaad

#252100000
b1110111 aaaae

#261700000
b100000 aaaaa
b1010010 aaaae

#261900000
b1010010 aaaab
b100000 aaaae

#274400000
b100000 aaaab

#282800000
b1010010 aaaac

#290300000
b100000 aaaac
b1010010 aaaaf

#290500000
b100000 aaaaf

#291900000
b1010010 aaaad

#292100000
b1010010 aaaaa
b100000 aaaad

#292500000
b1110111 aaaae

#302100000
b100000 aaaaa
b1010010 aaaae

#302300000
b1010010 aaaab
b100000 aaaae

#314800000
b100000 aaaab

#323200000
b1010010 aaaac

#330700000
b100000 aaaac
b1010010 aaaaf

#330900000
b100000 aaaaf

#332300000
b1010010 aaaad

#332500000
b1010010 aaaaa
b100000 aaaad

#332900000
b1110111 aaaae

#342500000
b100000 aaaaa
b1010010 aaaae

#342700000
b1010010 aaaab
b100000 aaaae

#355200000
b100000 aaaab

#363600000
b1010010 aaaac

#371100000
b100000 aaaac
b1010010 aaaaf

#371300000
b100000 aaaaf

#372700000
b1010010 aaaad

#372900000
b1010010 aaaaa
b100000 aaaad

#373300000
b1110111 aaaae

#382900000
b100000 aaaaa
b1010010 aaaae

#383100000
b1010010 aaaab
b100000 aaaae

#395600000
b100000 aaaab

#404000000
b1010010 aaaac

#411500000
b100000 aaaac
b1010010 aaaaf

#411700000
b100000 aaaaf

#413100000
b1010010 aaaad

#413300000
b1010010 aaaaa
b100000 aaaad

#413700000
b1110111 aaaae

#423300000
b100000 aaaaa
b1010010 aaaae

#423500000
b1010010 aaaab
b100000 aaaae

#436000000
b100000 aaaab

#444400000
b1010010 aaaac

#451900000
b100000 aaaac
b1010010 aaaaf

#452100000
b100000 aaaaf

#453500000
b1010010 aaaad

#453700000
b1010010 aaaaa
b100000 aaaad

#454100000
b1110111 aaaae

#463700000
b100000 aaaaa
b1010010 aaaae

#463900000
b1010010 aaaab
b100000 aaaae

#476400000
b100000 aaaab

#484800000
b1010010 aaaac

#492300000
b100000 aaaac
b1010010 aaaaf

#492500000
b100000 aaaaf

#493900000
b1010010 aaaad

#494100000
b1010010 aaaaa
b100000 aaaad

#494500000
b1110111 aaaae

#504100000
b100000 aaaaa
b1010010 aaaae

#504300000
b1010010 aaaab
b100000 aaaae

#516800000
b100000 aaaab

#525200000
b1010010 aaaac

#532700000
b100000 aaaac
b1010010 aaaaf

#532900000
b100000 aaaaf

#534300000
b1010010 aaaad

#534500000
b1010010 aaaaa
b100000 aaaad

#534900000
b1110111 aaaae

#544500000
b100000 aaaaa
b1010010 aaaae

#544700000
b1010010 aaaab
b100000 aaaae

#557200000
b100000 aaaab

#565600000
b1010010 aaaac

#573100000
b100000 aaaac
b1010010 aaaaf

#573300000
b100000 aaaaf

#574700000
b1010010 aaaad

#574900000
b1010010 aaaaa
b100000 aaaad

#575300000
b1110111 aaaae

#584900000
b100000 aaaaa
b1010010 aaaae

#585100000
b1010010 aaaab
b100000 aaaae

#597600000
b100000 aaaab

#606000000
b1010010 aaaac

#613500000
b100000 aaaac
b1010010 aaaaf

#613700000
b100000 aaaaf

#615100000
b1010010 aaaad

#615300000
b1010010 aaaaa
b100000 aaaad

#615700000
b1110111 aaaae

#625300000
b100000 aaaaa
b1010010 aaaae

#625500000
b1010010 aaaab
b100000 aaaae

#638000000
b100000 aaaab

#646400000
b1010010 aaaac

#653900000
b100000 aaaac
b1010010 aaaaf

#654100000
b100000 aaaaf

#655500000
b1010010 aaaad

#655700000
b1010010 aaaaa
b100000 aaaad

#656100000
b1110111 aaaae

#665700000
b100000 aaaaa
b1010010 aaaae

#665900000
b1010010 aaaab
b100000 aaaae

#678400000
b100000 aaaab

#686800000
b1010010 aaaac

#694300000
b100000 aaaac
b1010010 aaaaf

#694500000
b100000 aaaaf

#695900000
b1010010 aaaad

#696100000
b1010010 aaaaa
b100000 aaaad

#696500000
b1110111 aaaae

#706100000
b100000 aaaaa
b1010010 aaaae

#706300000
b1010010 aaaab
b100000 aaaae

#718800000
b100000 aaaab

#727200000
b1010010 aaaac

#734700000
b100000 aaaac
b1010010 aaaaf

#734900000
b100000 aaaaf

#736300000
b1010010 aaaad

#736500000
b1010010 aaaaa
b100000 aaaad

#736900000
b1110111 aaaae

#746500000
b100000 aaaaa
b1010010 aaaae

#746700000
b1010010 aaaab
b100000 aaaae

#759200000
b100000 aaaab

#767600000
b1010010 aaaac

#775100000
b100000 aaaac
b1010010 aaaaf

#775300000
b100000 aaaaf

#776700000
b1010010 aaaad

#776900000
b1010010 aaaaa
b100000 aaaad

#777300000
b1110111 aaaae

#786900000
b100000 aaaaa
b1010010 aaaae

#787100000
b1010010 aaaab
b100000 aaaae

#799600000
b100000 aaaab

#808000000
b1010010 aaaac

#815500000
b100000 aaaac
b1010010 aaaaf

#815700000
b100000 aaaaf

#817100000
b1010010 aaaad

#817300000
b1010010 aaaaa
b100000 aaaad

#817700000
b1110111 aaaae

#827300000
b100000 aaaaa
b1010010 aaaae

#827500000
b1010010 aaaab
b100000 aaaae

#840000000
b100000 aaaab

#848400000
b1010010 aaaac

#855900000
b100000 aaaac
b1010010 aaaaf

#856100000
b100000 aaaaf

#857500000
b1010010 aaaad

#857700000
b1010010 aaaaa
b100000 aaaad

#858100000
b1110111 aaaae

#867700000
b100000 aaaaa
b1010010 aaaae

#867900000
b1010010 aaaab
b100000 aaaae

#880400000
b100000 aaaab

#888800000
b1010010 aaaac

#896300000
b100000 aaaac
b1010010 aaaaf

#896500000
b100000 aaaaf

#897900000
b1010010 aaaad

#898100000
b1010010 aaaaa
b100000 aaaad

#898500000
b1110111 aaaae

#908100000
b100000 aaaaa
b1010010 aaaae

#908300000
b1010010 aaaab
b100000 aaaae

#920800000
b100000 aaaab

#929200000
b1010010 aaaac

#936700000
b100000 aaaac
b1010010 aaaaf

#936900000
b100000 aaaaf

#938300000
b1010010 aaaad

#938500000
b1010010 aaaaa
b100000 aaaad

#938900000
b1110111 aaaae

#948500000
b100000 aaaaa
b1010010 aaaae

#948700000
b1010010 aaaab
b100000 aaaae

#961200000
b100000 aaaab

#969600000
b1010010 aaaac

#977100000
b100000 aaaac
b1010010 aaaaf

#977300000
b100000 aaaaf

#978700000
b1010010 aaaad

#978900000
b1010010 aaaaa
b100000 aaaad

#979300000
b1110111 aaaae

#988900000
b100000 aaaaa
b1010010 aaaae

#989100000
b1010010 aaaab
b100000 aaaae

#1001600000
b100000 aaaab

#1010000000
b1010010 aaaac

#1017500000
b100000 aaaac
b1010010 aaaaf

#1017700000
b100000 aaaaf

#1019100000
b1010010 aaaad

#1019300000
b1010010 aaaaa
b100000 aaaad

#1019700000
b1110111 aaaae

#1029300000
b100000 aaaaa
b1010010 aaaae

#1029500000
b1010010 aaaab
b100000 aaaae

#1042000000
b100000 aaaab

#1050400000
b1010010 aaaac

#1057900000
b100000 aaaac
b1010010 aaaaf

#1058100000
b100000 aaaaf

#1059500000
b1010010 aaaad

#1059700000
b1010010 aaaaa
b100000 aaaad

#1060100000
b1110111 aaaae

#1069700000
b100000 aaaaa
b1010010 aaaae

#1069900000
b1010010 aaaab
b100000 aaaae

#1082400000
b100000 aaaab

#1090800000
b1010010 aaaac

#1098300000
b100000 aaaac
b1010010 aaaaf

#1098500000
b100000 aaaaf

#1099900000
b1010010 aaaad

#1100100000
b1010010 aaaaa
b100000 aaaad

#1100500000
b1110111 aaaae

#1110100000
b100000 aaaaa
b1010010 aaaae

#1110300000
b1010010 aaaab
b100000 aaaae

#1122800000
b100000 aaaab

#1131200000
b1010010 aaaac

#1138700000
b100000 aaaac
b1010010 aaaaf

#1138900000
b100000 aaaaf

#1140300000
b1010010 aaaad

#1140500000
b1010010 aaaaa
b100000 aaaad

#1140900000
b1110111 aaaae

#1150500000
b100000 aaaaa
b1010010 aaaae

#1150700000
b1010010 aaaab
b100000 aaaae

#1163200000
b100000 aaaab

#1171600000
b1010010 aaaac

#1179100000
b100000 aaaac
b1010010 aaaaf

#1179300000
b100000 aaaaf

#1180700000
b1010010 aaaad

#1180900000
b1010010 aaaaa
b100000 aaaad

#1181300000
b1110111 aaaae

#1190900000
b100000 aaaaa
b1010010 aaaae

#1191100000
b1010010 aaaab
b100000 aaaae

#1203600000
b100000 aaaab

#1212000000
b1010010 aaaac

#1219500000
b100000 aaaac
b1010010 aaaaf

#1219700000
b100000 aaaaf

#1221100000
b1010010 aaaad

#1221300000
b1010010 aaaaa
b100000 aaaad

#1221700000
b1110111 aaaae

#1231300000
b100000 aaaaa
b1010010 aaaae

#1231500000
b1010010 aaaab
b100000 aaaae

#1244000000
b100000 aaaab

#1252400000
b1010010 aaaac

#1259900000
b100000 aaaac
b1010010 aaaaf

#1260100000
b100000 aaaaf

#1261500000
b1010010 aaaad

#1261700000
b1010010 aaaaa
b100000 aaaad

#1262100000
b1110111 aaaae

#1271700000
b100000 aaaaa
b1010010 aaaae

#1271900000
b1010010 aaaab
b100000 aaaae

#1284400000
b100000 aaaab

#1292800000
b1010010 aaaac

#1300300000
b100000 aaaac
b1010010 aaaaf

#1300500000
b100000 aaaaf

#1301900000
b1010010 aaaad

#1302100000
b1010010 aaaaa
b100000 aaaad

#1302500000
b1110111 aaaae

#1312100000
b100000 aaaaa
b1010010 aaaae

#1312300000
b1010010 aaaab
b100000 aaaae

#1324800000
b100000 aaaab

#1333200000
b1010010 aaaac

#1340700000
b100000 aaaac
b1010010 aaaaf

#1340900000
b100000 aaaaf

#1342300000
b1010010 aaaad

#1342500000
b1010010 aaaaa
b100000 aaaad

#1342900000
b1110111 aaaae

#1352500000
b100000 aaaaa
b1010010 aaaae

#1352700000
b1010010 aaaab
b100000 aaaae

#1365200000
b100000 aaaab

#1373600000
b1010010 aaaac

#1381100000
b100000 aaaac
b1010010 aaaaf

#1381300000
b100000 aaaaf

#1382700000
b1010010 aaaad

#1382900000
b1010010 aaaaa
b100000 aaaad

#1383300000
b1110111 aaaae

#1392900000
b100000 aaaaa
b1010010 aaaae

#1393100000
b1010010 aaaab
b100000 aaaae

#1405600000
b100000 aaaab

#1414000000
b1010010 aaaac

#1421500000
b100000 aaaac
b1010010 aaaaf

#1421700000
b100000 aaaaf

#1423100000
b1010010 aaaad

#1423300000
b1010010 aaaaa
b100000 aaaad

#1423700000
b1110111 aaaae

#1433300000
b100000 aaaaa
b1010010 aaaae

#1433500000
b1010010 aaaab
b100000 aaaae

#1446000000
b100000 aaaab

#1454400000
b1010010 aaaac

#1461900000
b100000 aaaac
b1010010 aaaaf

#1462100000
b100000 aaaaf

#1463500000
b1010010 aaaad

#1463700000
b1010010 aaaaa
b100000 aaaad

#1464100000
b1110111 aaaae

#1473700000
b100000 aaaaa
b1010010 aaaae

#1473900000
b1010010 aaaab
b100000 aaaae

#1486400000
b100000 aaaab

#1494800000
b1010010 aaaac

#1502300000
b100000 aaaac
b1010010 aaaaf

#1502500000
b100000 aaaaf

#1503900000
b1010010 aaaad

#1504100000
b1010010 aaaaa
b100000 aaaad

#1504500000
b1110111 aaaae

#1514100000
b100000 aaaaa
b1010010 aaaae

#1514300000
b1010010 aaaab
b100000 aaaae

#1526800000
b100000 aaaab

#1535200000
b1010010 aaaac

#1542700000
b100000 aaaac
b1010010 aaaaf

#1542900000
b100000 aaaaf

#1544300000
b1010010 aaaad

#1544500000
b1010010 aaaaa
b100000 aaaad

#1544900000
b1110111 aaaae

#1554500000
b100000 aaaaa
b1010010 aaaae

#1554700000
b1010010 aaaab
b100000 aaaae

#1567200000
b100000 aaaab

#1575600000
b1010010 aaaac

#1583100000
b100000 aaaac
b1010010 aaaaf

#1583300000
b100000 aaaaf

#1584700000
b1010010 aaaad

#1584900000
b1010010 aaaaa
b100000 aaaad

#1585300000
b1110111 aaaae

#1594900000
b100000 aaaaa
b1010010 aaaae

#1595100000
b1010010 aaaab
b100000 aaaae

#1607600000
b100000 aaaab

#1616000000
b1010010 aaaac

#1623500000
b100000 aaaac
b1010010 aaaaf

#1623700000
b100000 aaaaf

#1625100000
b1010010 aaaad

#1625300000
b1010010 aaaaa
b100000 aaaad

#1625700000
b1110111 aaaae

#1635300000
b100000 aaaaa
b1010010 aaaae

#1635500000
b1010010 aaaab
b100000 aaaae

#1648000000
b100000 aaaab

#1656400000
b1010010 aaaac

#1663900000
b100000 aaaac
b1010010 aaaaf

#1664100000
b100000 aaaaf

#1665500000
b1010010 aaaad

#1665700000
b1010010 aaaaa
b100000 aaaad

#1666100000
b1110111 aaaae

#1675700000
b100000 aaaaa
b1010010 aaaae

#1675900000
b1010010 aaaab
b100000 aaaae

#1688400000
b100000 aaaab

#1696800000
b1010010 aaaac

#1704300000
b100000 aaaac
b1010010 aaaaf

#1704500000
b100000 aaaaf

#1705900000
b1010010 aaaad

#1706100000
b1010010 aaaaa
b100000 aaaad

#1706500000
b1110111 aaaae

#1716100000
b100000 aaaaa
b1010010 aaaae

#1716300000
b1010010 aaaab
b100000 aaaae

#1728800000
b100000 aaaab

#1737200000
b1010010 aaaac

#1744700000
b100000 aaaac
b1010010 aaaaf

#1744900000
b100000 aaaaf

#1746300000
b1010010 aaaad

#1746500000
b1010010 aaaaa
b100000 aaaad

#1746900000
b1110111 aaaae

#1756500000
b100000 aaaaa
b1010010 aaaae

#1756700000
b1010010 aaaab
b100000 aaaae

#1769200000
b100000 aaaab

#1777600000
b1010010 aaaac

#1785100000
b100000 aaaac
b1010010 aaaaf

#1785300000
b100000 aaaaf

#1786700000
b1010010 aaaad

#1786900000
b1010010 aaaaa
b100000 aaaad

#1787300000
b1110111 aaaae

#1796900000
b100000 aaaaa
b1010010 aaaae

#1797100000
b1010010 aaaab
b100000 aaaae

#1809600000
b100000 aaaab

#1818000000
b1010010 aaaac

#1825500000
b100000 aaaac
b1010010 aaaaf

#1825700000
b100000 aaaaf

#1827100000
b1010010 aaaad

#1827300000
b1010010 aaaaa
b100000 aaaad

#1827700000
b1110111 aaaae

#1837300000
b100000 aaaaa
b1010010 aaaae

#1837500000
b1010010 aaaab
b100000 aaaae

#1850000000
b100000 aaaab

#1858400000
b1010010 aaaac

#1865900000
b100000 aaaac
b1010010 aaaaf

#1866100000
b100000 aaaaf

#1867500000
b1010010 aaaad

#1867700000
b1010010 aaaaa
b100000 aaaad

#1868100000
b1110111 aaaae

#1877700000
b100000 aaaaa
b1010010 aaaae

#1877900000
b1010010 aaaab
b100000 aaaae

#1890400000
b100000 aaaab

#1898800000
b1010010 aaaac

#1906300000
b100000 aaaac
b1010010 aaaaf

#1906500000
b100000 aaaaf

#1907900000
b1010010 aaaad

#1908100000
b1010010 aaaaa
b100000 aaaad

#1908500000
b1110111 aaaae

#1918100000
b100000 aaaaa
b1010010 aaaae

#1918300000
b1010010 aaaab
b100000 aaaae

#1930800000
b100000 aaaab

#1939200000
b1010010 aaaac

#1946700000
b100000 aaaac
b1010010 aaaaf

#1946900000
b100000 aaaaf

#1948300000
b1010010 aaaad

#1948500000
b1010010 aaaaa
b100000 aaaad

#1948900000
b1110111 aaaae

#1958500000
b100000 aaaaa
b1010010 aaaae

#1958700000
b1010010 aaaab
b100000 aaaae

#1971200000
b100000 aaaab

#1979600000
b1010010 aaaac

#1987100000
b100000 aaaac
b1010010 aaaaf

#1987300000
b100000 aaaaf

#1988700000
b1010010 aaaad

#1988900000
b1010010 aaaaa
b100000 aaaad

#1989300000
b1110111 aaaae

#1998900000
b100000 aaaaa
b1010010 aaaae

#1999100000
b1010010 aaaab
b100000 aaaae

#2011600000
b100000 aaaab

#2020000000
b1010010 aaaac

#2027500000
b100000 aaaac
b1010010 aaaaf

#2027700000
b100000 aaaaf

#2029100000
b1010010 aaaad

#2029300000
b1010010 aaaaa
b100000 aaaad

#2029700000
b1110111 aaaae

#2039300000
b100000 aaaaa
b1010010 aaaae

#2039500000
b1010010 aaaab
b100000 aaaae

#2052000000
b100000 aaaab

#2060400000
b1010010 aaaac

#2067900000
b100000 aaaac
b1010010 aaaaf

#2068100000
b100000 aaaaf

#2069500000
b1010010 aaaad

#2069700000
b1010010 aaaaa
b100000 aaaad

#2070100000
b1110111 aaaae

#2079700000
b100000 aaaaa
b1010010 aaaae

#2079900000
b1010010 aaaab
b100000 aaaae

#2092400000
b100000 aaaab

#2100800000
b1010010 aaaac

#2108300000
b100000 aaaac
b1010010 aaaaf

#2108500000
b100000 aaaaf

#2109900000
b1010010 aaaad

#2110100000
b1010010 aaaaa
b100000 aaaad

#2110500000
b1110111 aaaae

#2120100000
b100000 aaaaa
b1010010 aaaae

#2120300000
b1010010 aaaab
b100000 aaaae

#2132800000
b100000 aaaab

#2141200000
b1010010 aaaac

#2148700000
b100000 aaaac
b1010010 aaaaf

#2148900000
b100000 aaaaf

#2150300000
b1010010 aaaad

#2150500000
b1010010 aaaaa
b100000 aaaad

#2150900000
b1110111 aaaae

#2160500000
b100000 aaaaa
b1010010 aaaae

#2160700000
b1010010 aaaab
b100000 aaaae

#2173200000
b100000 aaaab

#2181600000
b1010010 aaaac

#2189100000
b100000 aaaac
b1010010 aaaaf

#2189300000
b100000 aaaaf

#2190700000
b1010010 aaaad

#2190900000
b1010010 aaaaa
b100000 aaaad

#2191300000
b1110111 aaaae

#2200900000
b100000 aaaaa
b1010010 aaaae

#2201100000
b1010010 aaaab
b100000 aaaae

#2213600000
b100000 aaaab

#2222000000
b1010010 aaaac

#2229500000
b100000 aaaac
b1010010 aaaaf

#2229700000
b100000 aaaaf

#2231100000
b1010010 aaaad

#2231300000
b1010010 aaaaa
b100000 aaaad

#2231700000
b1110111 aaaae

#2241300000
b100000 aaaaa
b1010010 aaaae

#2241500000
b1010010 aaaab
b100000 aaaae

#2254000000
b100000 aaaab

#2262400000
b1010010 aaaac

#2269900000
b100000 aaaac
b1010010 aaaaf

#2270100000
b100000 aaaaf

#2271500000
b1010010 aaaad

#2271700000
b1010010 aaaaa
b100000 aaaad

#2272100000
b1110111 aaaae

#2281700000
b100000 aaaaa
b1010010 aaaae

#2281900000
b1010010 aaaab
b100000 aaaae

#2294400000
b100000 aaaab

#2302800000
b1010010 aaaac

#2310300000
b100000 aaaac
b1010010 aaaaf

#2310500000
b100000 aaaaf

#2311900000
b1010010 aaaad

#2312100000
b1010010 aaaaa
b100000 aaaad

#2312500000
b1110111 aaaae

#2322100000
b100000 aaaaa
b1010010 aaaae

#2322300000
b1010010 aaaab
b100000 aaaae

#2334800000
b100000 aaaab

#2343200000
b1010010 aaaac

#2350700000
b100000 aaaac
b1010010 aaaaf

#2350900000
b100000 aaaaf

#2352300000
b1010010 aaaad

#2352500000
b1010010 aaaaa
b100000 aaaad

#2352900000
b1110111 aaaae

#2362500000
b100000 aaaaa
b1010010 aaaae

#2362700000
b1010010 aaaab
b100000 aaaae

#2375200000
b100000 aaaab

#2383600000
b1010010 aaaac

#2391100000
b100000 aaaac
b1010010 aaaaf

#2391300000
b100000 aaaaf

#2392700000
b1010010 aaaad

#2392900000
b1010010 aaaaa
b100000 aaaad

#2393300000
b1110111 aaaae

#2402900000
b100000 aaaaa
b1010010 aaaae

#2403100000
b1010010 aaaab
b100000 aaaae

#2415600000
b100000 aaaab

#2424000000
b1010010 aaaac

#2431500000
b100000 aaaac
b1010010 aaaaf

#2431700000
b100000 aaaaf

#2433100000
b1010010 aaaad

#2433300000
b1010010 aaaaa
b100000 aaaad

#2433700000
b1110111 aaaae

#2443300000
b100000 aaaaa
b1010010 aaaae

#2443500000
b1010010 aaaab
b100000 aaaae

#2456000000
b100000 aaaab

#2464400000
b1010010 aaaac

#2471900000
b100000 aaaac
b1010010 aaaaf

#2472100000
b100000 aaaaf

#2473500000
b1010010 aaaad

#2473700000
b1010010 aaaaa
b100000 aaaad

#2474100000
b1110111 aaaae

#2483700000
b100000 aaaaa
b1010010 aaaae

#2483900000
b1010010 aaaab
b100000 aaaae

#2496400000
b100000 aaaab

#2504800000
b1010010 aaaac

#2512300000
b100000 aaaac
b1010010 aaaaf

#2512500000
b100000 aaaaf

#2513900000
b1010010 aaaad

#2514100000
b1010010 aaaaa
b100000 aaaad

#2514500000
b1110111 aaaae

#2524100000
b100000 aaaaa
b1010010 aaaae

#2524300000
b1010010 aaaab
b100000 aaaae

#2536800000
b100000 aaaab

#2545200000
b1010010 aaaac

#2552700000
b100000 aaaac
b1010010 aaaaf

#2552900000
b100000 aaaaf

#2554300000
b1010010 aaaad

#2554500000
b1010010 aaaaa
b100000 aaaad

#2554900000
b1110111 aaaae

#2564500000
b100000 aaaaa
b1010010 aaaae

#2564700000
b1010010 aaaab
b100000 aaaae

#2577200000
b100000 aaaab

#2585600000
b1010010 aaaac

#2593100000
b100000 aaaac
b1010010 aaaaf

#2593300000
b100000 aaaaf

#2594700000
b1010010 aaaad

#2594900000
b1010010 aaaaa
b100000 aaaad

#2595300000
b1110111 aaaae

#2604900000
b100000 aaaaa
b1010010 aaaae

#2605100000
b1010010 aaaab
b100000 aaaae

#2617600000
b100000 aaaab

#2626000000
b1010010 aaaac

#2633500000
b100000 aaaac
b1010010 aaaaf

#2633700000
b100000 aaaaf

#2635100000
b1010010 aaaad

#2635300000
b1010010 aaaaa
b100000 aaaad

#2635700000
b1110111 aaaae

#2645300000
b100000 aaaaa
b1010010 aaaae

#2645500000
b1010010 aaaab
b100000 aaaae

#2658000000
b100000 aaaab

#2666400000
b1010010 aaaac

#2673900000
b100000 aaaac
b1010010 aaaaf

#2674100000
b100000 aaaaf

#2675500000
b1010010 aaaad

#2675700000
b1010010 aaaaa
b100000 aaaad

#2676100000
b1110111 aaaae

#2685700000
b100000 aaaaa
b1010010 aaaae

#2685900000
b1010010 aaaab
b100000 aaaae

#2698400000
b100000 aaaab

#2706800000
b1010010 aaaac

#2714300000
b100000 aaaac
b1010010 aaaaf

#2714500000
b100000 aaaaf

#2715900000
b1010010 aaaad

#2716100000
b1010010 aaaaa
b100000 aaaad

#2716500000
b1110111 aaaae

#2726100000
b100000 aaaaa
b1010010 aaaae

#2726300000
b1010010 aaaab
b100000 aaaae

#2738800000
b100000 aaaab

#2747200000
b1010010 aaaac

#2754700000
b100000 aaaac
b1010010 aaaaf

#2754900000
b100000 aaaaf

#2756300000
b1010010 aaaad

#2756500000
b1010010 aaaaa
b100000 aaaad

#2756900000
b1110111 aaaae

#2766500000
b100000 aaaaa
b1010010 aaaae

#2766700000
b1010010 aaaab
b100000 aaaae

#2779200000
b100000 aaaab

#2787600000
b1010010 aaaac

#2795100000
b100000 aaaac
b1010010 aaaaf

#2795300000
b100000 aaaaf

#2796700000
b1010010 aaaad

#2796900000
b1010010 aaaaa
b100000 aaaad

#2797300000
b1110111 aaaae

#2806900000
b100000 aaaaa
b1010010 aaaae

#2807100000
b1010010 aaaab
b100000 aaaae

#2819600000
b100000 aaaab

#2828000000
b1010010 aaaac

#2835500000
b100000 aaaac
b1010010 aaaaf

#2835700000
b100000 aaaaf

#2837100000
b1010010 aaaad

#2837300000
b1010010 aaaaa
b100000 aaaad

#2837700000
b1110111 aaaae

#2847300000
b100000 aaaaa
b1010010 aaaae

#2847500000
b1010010 aaaab
b100000 aaaae

#2860000000
b100000 aaaab

#2868400000
b1010010 aaaac

#2875900000
b100000 aaaac
b1010010 aaaaf

#2876100000
b100000 aaaaf

#2877500000
b1010010 aaaad

#2877700000
b1010010 aaaaa
b100000 aaaad

#2878100000
b1110111 aaaae

#2887700000
b100000 aaaaa
b1010010 aaaae

#2887900000
b1010010 aaaab
b100000 aaaae

#2900400000
b100000 aaaab

#2908800000
b1010010 aaaac

#2916300000
b100000 aaaac
b1010010 aaaaf

#2916500000
b100000 aaaaf

#2917900000
b1010010 aaaad

#2918100000
b1010010 aaaaa
b100000 aaaad

#2918500000
b1110111 aaaae

#2928100000
b100000 aaaaa
b1010010 aaaae

#2928300000
b1010010 aaaab
b100000 aaaae

#2940800000
b100000 aaaab

#2949200000
b1010010 aaaac

#2956700000
b100000 aaaac
b1010010 aaaaf

#2956900000
b100000 aaaaf

#2958300000
b1010010 aaaad

#2958500000
b1010010 aaaaa
b100000 aaaad

#2958900000
b1110111 aaaae

#2968500000
b100000 aaaaa
b1010010 aaaae

#2968700000
b1010010 aaaab
b100000 aaaae

#2981200000
b100000 aaaab

#2989600000
b1010010 aaaac

#2997100000
b100000 aaaac
b1010010 aaaaf

#2997300000
b100000 aaaaf

#2998700000
b1010010 aaaad

#2998900000
b1010010 aaaaa
b100000 aaaad

#2999300000
b1110111 aaaae

#3008900000
b100000 aaaaa
b1010010 aaaae

#3009100000
b1010010 aaaab
b100000 aaaae

#3021600000
b100000 aaaab

#3030000000
b1010010 aaaac

#3037500000
b100000 aaaac
b1010010 aaaaf

#3037700000
b100000 aaaaf

#3039100000
b1010010 aaaad

#3039300000
b1010010 aaaaa
b100000 aaaad

#3039700000
b1110111 aaaae

#3049300000
b100000 aaaaa
b1010010 aaaae

#3049500000
b1010010 aaaab
b100000 aaaae

#3062000000
b100000 aaaab

#3070400000
b1010010 aaaac

#3077900000
b100000 aaaac
b1010010 aaaaf

#3078100000
b100000 aaaaf

#3079500000
b1010010 aaaad

#3079700000
b1010010 aaaaa
b100000 aaaad

#3080100000
b1110111 aaaae

#3089700000
b100000 aaaaa
b1010010 aaaae

#3089900000
b1010010 aaaab
b100000 aaaae

#3102400000
b100000 aaaab

#3110800000
b1010010 aaaac

#3118300000
b100000 aaaac
b1010010 aaaaf

#3118500000
b100000 aaaaf

#3119900000
b1010010 aaaad

#3120100000
b1010010 aaaaa
b100000 aaaad

#3120500000
b1110111 aaaae

#3130100000
b100000 aaaaa
b1010010 aaaae

#3130300000
b1010010 aaaab
b100000 aaaae

#3142800000
b100000 aaaab

#3151200000
b1010010 aaaac

#3158700000
b100000 aaaac
b1010010 aaaaf

#3158900000
b100000 aaaaf

#3160300000
b1010010 aaaad

#3160500000
b1010010 aaaaa
b100000 aaaad

#3160900000
b1110111 aaaae

#3170500000
b100000 aaaaa
b1010010 aaaae

#3170700000
b1010010 aaaab
b100000 aaaae

#3183200000
b100000 aaaab

#3191600000
b1010010 aaaac

#3199100000
b100000 aaaac
b1010010 aaaaf

#3199300000
b100000 aaaaf

#3200700000
b1010010 aaaad

#3200900000
b1010010 aaaaa
b100000 aaaad

#3201300000
b1110111 aaaae

#3210900000
b100000 aaaaa
b1010010 aaaae

#3211100000
b1010010 aaaab
b100000 aaaae

#3223600000
b100000 aaaab

#3232000000
b1010010 aaaac

#3239500000
b100000 aaaac
b1010010 aaaaf

#3239700000
b100000 aaaaf

#3241100000
b1010010 aaaad

#3241300000
b1010010 aaaaa
b100000 aaaad

#3241700000
b1110111 aaaae

#3251300000
b100000 aaaaa
b1010010 aaaae

#3251500000
b1010010 aaaab
b100000 aaaae

#3264000000
b100000 aaaab

#3272400000
b1010010 aaaac

#3279900000
b100000 aaaac
b1010010 aaaaf

#3280100000
b100000 aaaaf

