testcases/src/test-src-snk-multicast/vpc/SPNOPRE-route/golden/CPU2.vcd
$date
     Jul 24, 2018       16:17:13
$end

$version
 SystemC 2.3.1-Accellera --- May  7 2018 11:30:25
$end

$timescale
     1 ns
$end

$scope module SystemC $end
$var wire    8  aaaaa  top.snk3 [7:0]  $end
$var wire    8  aaaab  top.snk4 [7:0]  $end
$var wire    8  aaaac  top.snk3.i_0 [7:0]  $end
$var wire    8  aaaad  top.snk4.i_0 [7:0]  $end
$upscope $end
$enddefinitions  $end

$comment
All initial values are dumped below at time 0 sec = 0 timescale units.
$end

$dumpvars
b100000 aaaaa
b100000 aaaab
b100000 aaaac
b100000 aaaad
$end

#9400000
b1010010 aaaac

#9650000
b1010010 aaaaa
b100000 aaaac

#10000000
b1110111 aaaad

#15150000
b100000 aaaaa
b1010010 aaaad

#15400000
b1010010 aaaab
b100000 aaaad

#40400000
b100000 aaaab

#49800000
b1010010 aaaac

#50050000
b1010010 aaaaa
b100000 aaaac

#50400000
b1110111 aaaad

#55550000
b100000 aaaaa
b1010010 aaaad

#55800000
b1010010 aaaab
b100000 aaaad

#80800000
b100000 aaaab

#90200000
b1010010 aaaac

#90450000
b1010010 aaaaa
b100000 aaaac

#90800000
b1110111 aaaad

#95950000
b100000 aaaaa
b1010010 aaaad

#96200000
b1010010 aaaab
b100000 aaaad

#121200000
b100000 aaaab

#130600000
b1010010 aaaac

#130850000
b1010010 aaaaa
b100000 aaaac

#131200000
b1110111 aaaad

#136350000
b100000 aaaaa
b1010010 aaaad

#136600000
b1010010 aaaab
b100000 aaaad

#161600000
b100000 aaaab

#171000000
b1010010 aaaac

#171250000
b1010010 aaaaa
b100000 aaaac

#171600000
b1110111 aaaad

#176750000
b100000 aaaaa
b1010010 aaaad

#177000000
b1010010 aaaab
b100000 aaaad

#202000000
b100000 aaaab

#211400000
b1010010 aaaac

#211650000
b1010010 aaaaa
b100000 aaaac

#212000000
b1110111 aaaad

#217150000
b100000 aaaaa
b1010010 aaaad

#217400000
b1010010 aaaab
b100000 aaaad

#242400000
b100000 aaaab

#251800000
b1010010 aaaac

#252050000
b1010010 aaaaa
b100000 aaaac

#252400000
b1110111 aaaad

#257550000
b100000 aaaaa
b1010010 aaaad

#257800000
b1010010 aaaab
b100000 aaaad

#282800000
b100000 aaaab

#292200000
b1010010 aaaac

#292450000
b1010010 aaaaa
b100000 aaaac

#292800000
b1110111 aaaad

#297950000
b100000 aaaaa
b1010010 aaaad

#298200000
b1010010 aaaab
b100000 aaaad

#323200000
b100000 aaaab

#332600000
b1010010 aaaac

#332850000
b1010010 aaaaa
b100000 aaaac

#333200000
b1110111 aaaad

#338350000
b100000 aaaaa
b1010010 aaaad

#338600000
b1010010 aaaab
b100000 aaaad

#363600000
b100000 aaaab

#373000000
b1010010 aaaac

#373250000
b1010010 aaaaa
b100000 aaaac

#373600000
b1110111 aaaad

#378750000
b100000 aaaaa
b1010010 aaaad

#379000000
b1010010 aaaab
b100000 aaaad

#404000000
b100000 aaaab

#413400000
b1010010 aaaac

#413650000
b1010010 aaaaa
b100000 aaaac

#414000000
b1110111 aaaad

#419150000
b100000 aaaaa
b1010010 aaaad

#419400000
b1010010 aaaab
b100000 aaaad

#444400000
b100000 aaaab

#453800000
b1010010 aaaac

#454050000
b1010010 aaaaa
b100000 aaaac

#454400000
b1110111 aaaad

#459550000
b100000 aaaaa
b1010010 aaaad

#459800000
b1010010 aaaab
b100000 aaaad

#484800000
b100000 aaaab

#494200000
b1010010 aaaac

#494450000
b1010010 aaaaa
b100000 aaaac

#494800000
b1110111 aaaad

#499950000
b100000 aaaaa
b1010010 aaaad

#500200000
b1010010 aaaab
b100000 aaaad

#525200000
b100000 aaaab

#534600000
b1010010 aaaac

#534850000
b1010010 aaaaa
b100000 aaaac

#535200000
b1110111 aaaad

#540350000
b100000 aaaaa
b1010010 aaaad

#540600000
b1010010 aaaab
b100000 aaaad

#565600000
b100000 aaaab

#575000000
b1010010 aaaac

#575250000
b1010010 aaaaa
b100000 aaaac

#575600000
b1110111 aaaad

#580750000
b100000 aaaaa
b1010010 aaaad

#581000000
b1010010 aaaab
b100000 aaaad

#606000000
b100000 aaaab

#615400000
b1010010 aaaac

#615650000
b1010010 aaaaa
b100000 aaaac

#616000000
b1110111 aaaad

#621150000
b100000 aaaaa
b1010010 aaaad

#621400000
b1010010 aaaab
b100000 aaaad

#646400000
b100000 aaaab

#655800000
b1010010 aaaac

#656050000
b1010010 aaaaa
b100000 aaaac

#656400000
b1110111 aaaad

#661550000
b100000 aaaaa
b1010010 aaaad

#661800000
b1010010 aaaab
b100000 aaaad

#686800000
b100000 aaaab

#696200000
b1010010 aaaac

#696450000
b1010010 aaaaa
b100000 aaaac

#696800000
b1110111 aaaad

#701950000
b100000 aaaaa
b1010010 aaaad

#702200000
b1010010 aaaab
b100000 aaaad

#727200000
b100000 aaaab

#736600000
b1010010 aaaac

#736850000
b1010010 aaaaa
b100000 aaaac

#737200000
b1110111 aaaad

#742350000
b100000 aaaaa
b1010010 aaaad

#742600000
b1010010 aaaab
b100000 aaaad

#767600000
b100000 aaaab

#777000000
b1010010 aaaac

#777250000
b1010010 aaaaa
b100000 aaaac

#777600000
b1110111 aaaad

#782750000
b100000 aaaaa
b1010010 aaaad

#783000000
b1010010 aaaab
b100000 aaaad

#808000000
b100000 aaaab

#817400000
b1010010 aaaac

#817650000
b1010010 aaaaa
b100000 aaaac

#818000000
b1110111 aaaad

#823150000
b100000 aaaaa
b1010010 aaaad

#823400000
b1010010 aaaab
b100000 aaaad

#848400000
b100000 aaaab

#857800000
b1010010 aaaac

#858050000
b1010010 aaaaa
b100000 aaaac

#858400000
b1110111 aaaad

#863550000
b100000 aaaaa
b1010010 aaaad

#863800000
b1010010 aaaab
b100000 aaaad

#888800000
b100000 aaaab

#898200000
b1010010 aaaac

#898450000
b1010010 aaaaa
b100000 aaaac

#898800000
b1110111 aaaad

#903950000
b100000 aaaaa
b1010010 aaaad

#904200000
b1010010 aaaab
b100000 aaaad

#929200000
b100000 aaaab

#938600000
b1010010 aaaac

#938850000
b1010010 aaaaa
b100000 aaaac

#939200000
b1110111 aaaad

#944350000
b100000 aaaaa
b1010010 aaaad

#944600000
b1010010 aaaab
b100000 aaaad

#969600000
b100000 aaaab

#979000000
b1010010 aaaac

#979250000
b1010010 aaaaa
b100000 aaaac

#979600000
b1110111 aaaad

#984750000
b100000 aaaaa
b1010010 aaaad

#985000000
b1010010 aaaab
b100000 aaaad

#1010000000
b100000 aaaab

#1019400000
b1010010 aaaac

#1019650000
b1010010 aaaaa
b100000 aaaac

#1020000000
b1110111 aaaad

#1025150000
b100000 aaaaa
b1010010 aaaad

#1025400000
b1010010 aaaab
b100000 aaaad

#1050400000
b100000 aaaab

#1059800000
b1010010 aaaac

#1060050000
b1010010 aaaaa
b100000 aaaac

#1060400000
b1110111 aaaad

#1065550000
b100000 aaaaa
b1010010 aaaad

#1065800000
b1010010 aaaab
b100000 aaaad

#1090800000
b100000 aaaab

#1100200000
b1010010 aaaac

#1100450000
b1010010 aaaaa
b100000 aaaac

#1100800000
b1110111 aaaad

#1105950000
b100000 aaaaa
b1010010 aaaad

#1106200000
b1010010 aaaab
b100000 aaaad

#1131200000
b100000 aaaab

#1140600000
b1010010 aaaac

#1140850000
b1010010 aaaaa
b100000 aaaac

#1141200000
b1110111 aaaad

#1146350000
b100000 aaaaa
b1010010 aaaad

#1146600000
b1010010 aaaab
b100000 aaaad

#1171600000
b100000 aaaab

#1181000000
b1010010 aaaac

#1181250000
b1010010 aaaaa
b100000 aaaac

#1181600000
b1110111 aaaad

#1186750000
b100000 aaaaa
b1010010 aaaad

#1187000000
b1010010 aaaab
b100000 aaaad

#1212000000
b100000 aaaab

#1221400000
b1010010 aaaac

#1221650000
b1010010 aaaaa
b100000 aaaac

#1222000000
b1110111 aaaad

#1227150000
b100000 aaaaa
b1010010 aaaad

#1227400000
b1010010 aaaab
b100000 aaaad

#1252400000
b100000 aaaab

#1261800000
b1010010 aaaac

#1262050000
b1010010 aaaaa
b100000 aaaac

#1262400000
b1110111 aaaad

#1267550000
b100000 aaaaa
b1010010 aaaad

#1267800000
b1010010 aaaab
b100000 aaaad

#1292800000
b100000 aaaab

#1302200000
b1010010 aaaac

#1302450000
b1010010 aaaaa
b100000 aaaac

#1302800000
b1110111 aaaad

#1307950000
b100000 aaaaa
b1010010 aaaad

#1308200000
b1010010 aaaab
b100000 aaaad

#1333200000
b100000 aaaab

#1342600000
b1010010 aaaac

#1342850000
b1010010 aaaaa
b100000 aaaac

#1343200000
b1110111 aaaad

#1348350000
b100000 aaaaa
b1010010 aaaad

#1348600000
b1010010 aaaab
b100000 aaaad

#1373600000
b100000 aaaab

#1383000000
b1010010 aaaac

#1383250000
b1010010 aaaaa
b100000 aaaac

#1383600000
b1110111 aaaad

#1388750000
b100000 aaaaa
b1010010 aaaad

#1389000000
b1010010 aaaab
b100000 aaaad

#1414000000
b100000 aaaab

#1423400000
b1010010 aaaac

#1423650000
b1010010 aaaaa
b100000 aaaac

#1424000000
b1110111 aaaad

#1429150000
b100000 aaaaa
b1010010 aaaad

#1429400000
b1010010 aaaab
b100000 aaaad

#1454400000
b100000 aaaab

#1463800000
b1010010 aaaac

#1464050000
b1010010 aaaaa
b100000 aaaac

#1464400000
b1110111 aaaad

#1469550000
b100000 aaaaa
b1010010 aaaad

#1469800000
b1010010 aaaab
b100000 aaaad

#1494800000
b100000 aaaab

#1504200000
b1010010 aaaac

#1504450000
b1010010 aaaaa
b100000 aaaac

#1504800000
b1110111 aaaad

#1509950000
b100000 aaaaa
b1010010 aaaad

#1510200000
b1010010 aaaab
b100000 aaaad

#1535200000
b100000 aaaab

#1544600000
b1010010 aaaac

#1544850000
b1010010 aaaaa
b100000 aaaac

#1545200000
b1110111 aaaad

#1550350000
b100000 aaaaa
b1010010 aaaad

#1550600000
b1010010 aaaab
b100000 aaaad

#1575600000
b100000 aaaab

#1585000000
b1010010 aaaac

#1585250000
b1010010 aaaaa
b100000 aaaac

#1585600000
b1110111 aaaad

#1590750000
b100000 aaaaa
b1010010 aaaad

#1591000000
b1010010 aaaab
b100000 aaaad

#1616000000
b100000 aaaab

#1625400000
b1010010 aaaac

#1625650000
b1010010 aaaaa
b100000 aaaac

#1626000000
b1110111 aaaad

#1631150000
b100000 aaaaa
b1010010 aaaad

#1631400000
b1010010 aaaab
b100000 aaaad

#1656400000
b100000 aaaab

#1665800000
b1010010 aaaac

#1666050000
b1010010 aaaaa
b100000 aaaac

#1666400000
b1110111 aaaad

#1671550000
b100000 aaaaa
b1010010 aaaad

#1671800000
b1010010 aaaab
b100000 aaaad

#1696800000
b100000 aaaab

#1706200000
b1010010 aaaac

#1706450000
b1010010 aaaaa
b100000 aaaac

#1706800000
b1110111 aaaad

#1711950000
b100000 aaaaa
b1010010 aaaad

#1712200000
b1010010 aaaab
b100000 aaaad

#1737200000
b100000 aaaab

#1746600000
b1010010 aaaac

#1746850000
b1010010 aaaaa
b100000 aaaac

#1747200000
b1110111 aaaad

#1752350000
b100000 aaaaa
b1010010 aaaad

#1752600000
b1010010 aaaab
b100000 aaaad

#1777600000
b100000 aaaab

#1787000000
b1010010 aaaac

#1787250000
b1010010 aaaaa
b100000 aaaac

#1787600000
b1110111 aaaad

#1792750000
b100000 aaaaa
b1010010 aaaad

#1793000000
b1010010 aaaab
b100000 aaaad

#1818000000
b100000 aaaab

#1827400000
b1010010 aaaac

#1827650000
b1010010 aaaaa
b100000 aaaac

#1828000000
b1110111 aaaad

#1833150000
b100000 aaaaa
b1010010 aaaad

#1833400000
b1010010 aaaab
b100000 aaaad

#1858400000
b100000 aaaab

#1867800000
b1010010 aaaac

#1868050000
b1010010 aaaaa
b100000 aaaac

#1868400000
b1110111 aaaad

#1873550000
b100000 aaaaa
b1010010 aaaad

#1873800000
b1010010 aaaab
b100000 aaaad

#1898800000
b100000 aaaab

#1908200000
b1010010 aaaac

#1908450000
b1010010 aaaaa
b100000 aaaac

#1908800000
b1110111 aaaad

#1913950000
b100000 aaaaa
b1010010 aaaad

#1914200000
b1010010 aaaab
b100000 aaaad

#1939200000
b100000 aaaab

#1948600000
b1010010 aaaac

#1948850000
b1010010 aaaaa
b100000 aaaac

#1949200000
b1110111 aaaad

#1954350000
b100000 aaaaa
b1010010 aaaad

#1954600000
b1010010 aaaab
b100000 aaaad

#1979600000
b100000 aaaab

#1989000000
b1010010 aaaac

#1989250000
b1010010 aaaaa
b100000 aaaac

#1989600000
b1110111 aaaad

#1994750000
b100000 aaaaa
b1010010 aaaad

#1995000000
b1010010 aaaab
b100000 aaaad

#2020000000
b100000 aaaab

#2029400000
b1010010 aaaac

#2029650000
b1010010 aaaaa
b100000 aaaac

#2030000000
b1110111 aaaad

#2035150000
b100000 aaaaa
b1010010 aaaad

#2035400000
b1010010 aaaab
b100000 aaaad

#2060400000
b100000 aaaab

#2069800000
b1010010 aaaac

#2070050000
b1010010 aaaaa
b100000 aaaac

#2070400000
b1110111 aaaad

#2075550000
b100000 aaaaa
b1010010 aaaad

#2075800000
b1010010 aaaab
b100000 aaaad

#2100800000
b100000 aaaab

#2110200000
b1010010 aaaac

#2110450000
b1010010 aaaaa
b100000 aaaac

#2110800000
b1110111 aaaad

#2115950000
b100000 aaaaa
b1010010 aaaad

#2116200000
b1010010 aaaab
b100000 aaaad

#2141200000
b100000 aaaab

#2150600000
b1010010 aaaac

#2150850000
b1010010 aaaaa
b100000 aaaac

#2151200000
b1110111 aaaad

#2156350000
b100000 aaaaa
b1010010 aaaad

#2156600000
b1010010 aaaab
b100000 aaaad

#2181600000
b100000 aaaab

#2191000000
b1010010 aaaac

#2191250000
b1010010 aaaaa
b100000 aaaac

#2191600000
b1110111 aaaad

#2196750000
b100000 aaaaa
b1010010 aaaad

#2197000000
b1010010 aaaab
b100000 aaaad

#2222000000
b100000 aaaab

#2231400000
b1010010 aaaac

#2231650000
b1010010 aaaaa
b100000 aaaac

#2232000000
b1110111 aaaad

#2237150000
b100000 aaaaa
b1010010 aaaad

#2237400000
b1010010 aaaab
b100000 aaaad

#2262400000
b100000 aaaab

#2271800000
b1010010 aaaac

#2272050000
b1010010 aaaaa
b100000 aaaac

#2272400000
b1110111 aaaad

#2277550000
b100000 aaaaa
b1010010 aaaad

#2277800000
b1010010 aaaab
b100000 aaaad

#2302800000
b100000 aaaab

#2312200000
b1010010 aaaac

#2312450000
b1010010 aaaaa
b100000 aaaac

#2312800000
b1110111 aaaad

#2317950000
b100000 aaaaa
b1010010 aaaad

#2318200000
b1010010 aaaab
b100000 aaaad

#2343200000
b100000 aaaab

#2352600000
b1010010 aaaac

#2352850000
b1010010 aaaaa
b100000 aaaac

#2353200000
b1110111 aaaad

#2358350000
b100000 aaaaa
b1010010 aaaad

#2358600000
b1010010 aaaab
b100000 aaaad

#2383600000
b100000 aaaab

#2393000000
b1010010 aaaac

#2393250000
b1010010 aaaaa
b100000 aaaac

#2393600000
b1110111 aaaad

#2398750000
b100000 aaaaa
b1010010 aaaad

#2399000000
b1010010 aaaab
b100000 aaaad

#2424000000
b100000 aaaab

#2433400000
b1010010 aaaac

#2433650000
b1010010 aaaaa
b100000 aaaac

#2434000000
b1110111 aaaad

#2439150000
b100000 aaaaa
b1010010 aaaad

#2439400000
b1010010 aaaab
b100000 aaaad

#2464400000
b100000 aaaab

#2473800000
b1010010 aaaac

#2474050000
b1010010 aaaaa
b100000 aaaac

#2474400000
b1110111 aaaad

#2479550000
b100000 aaaaa
b1010010 aaaad

#2479800000
b1010010 aaaab
b100000 aaaad

#2504800000
b100000 aaaab

#2514200000
b1010010 aaaac

#2514450000
b1010010 aaaaa
b100000 aaaac

#2514800000
b1110111 aaaad

#2519950000
b100000 aaaaa
b1010010 aaaad

#2520200000
b1010010 aaaab
b100000 aaaad

#2545200000
b100000 aaaab

#2554600000
b1010010 aaaac

#2554850000
b1010010 aaaaa
b100000 aaaac

#2555200000
b1110111 aaaad

#2560350000
b100000 aaaaa
b1010010 aaaad

#2560600000
b1010010 aaaab
b100000 aaaad

#2585600000
b100000 aaaab

#2595000000
b1010010 aaaac

#2595250000
b1010010 aaaaa
b100000 aaaac

#2595600000
b1110111 aaaad

#2600750000
b100000 aaaaa
b1010010 aaaad

#2601000000
b1010010 aaaab
b100000 aaaad

#2626000000
b100000 aaaab

#2635400000
b1010010 aaaac

#2635650000
b1010010 aaaaa
b100000 aaaac

#2636000000
b1110111 aaaad

#2641150000
b100000 aaaaa
b1010010 aaaad

#2641400000
b1010010 aaaab
b100000 aaaad

#2666400000
b100000 aaaab

#2675800000
b1010010 aaaac

#2676050000
b1010010 aaaaa
b100000 aaaac

#2676400000
b1110111 aaaad

#2681550000
b100000 aaaaa
b1010010 aaaad

#2681800000
b1010010 aaaab
b100000 aaaad

#2706800000
b100000 aaaab

#2716200000
b1010010 aaaac

#2716450000
b1010010 aaaaa
b100000 aaaac

#2716800000
b1110111 aaaad

#2721950000
b100000 aaaaa
b1010010 aaaad

#2722200000
b1010010 aaaab
b100000 aaaad

#2747200000
b100000 aaaab

#2756600000
b1010010 aaaac

#2756850000
b1010010 aaaaa
b100000 aaaac

#2757200000
b1110111 aaaad

#2762350000
b100000 aaaaa
b1010010 aaaad

#2762600000
b1010010 aaaab
b100000 aaaad

#2787600000
b100000 aaaab

#2797000000
b1010010 aaaac

#2797250000
b1010010 aaaaa
b100000 aaaac

#2797600000
b1110111 aaaad

#2802750000
b100000 aaaaa
b1010010 aaaad

#2803000000
b1010010 aaaab
b100000 aaaad

#2828000000
b100000 aaaab

#2837400000
b1010010 aaaac

#2837650000
b1010010 aaaaa
b100000 aaaac

#2838000000
b1110111 aaaad

#2843150000
b100000 aaaaa
b1010010 aaaad

#2843400000
b1010010 aaaab
b100000 aaaad

#2868400000
b100000 aaaab

#2877800000
b1010010 aaaac

#2878050000
b1010010 aaaaa
b100000 aaaac

#2878400000
b1110111 aaaad

#2883550000
b100000 aaaaa
b1010010 aaaad

#2883800000
b1010010 aaaab
b100000 aaaad

#2908800000
b100000 aaaab

#2918200000
b1010010 aaaac

#2918450000
b1010010 aaaaa
b100000 aaaac

#2918800000
b1110111 aaaad

#2923950000
b100000 aaaaa
b1010010 aaaad

#2924200000
b1010010 aaaab
b100000 aaaad

#2949200000
b100000 aaaab

#2958600000
b1010010 aaaac

#2958850000
b1010010 aaaaa
b100000 aaaac

#2959200000
b1110111 aaaad

#2964350000
b100000 aaaaa
b1010010 aaaad

#2964600000
b1010010 aaaab
b100000 aaaad

#2989600000
b100000 aaaab

#2999000000
b1010010 aaaac

#2999250000
b1010010 aaaaa
b100000 aaaac

#2999600000
b1110111 aaaad

#3004750000
b100000 aaaaa
b1010010 aaaad

#3005000000
b1010010 aaaab
b100000 aaaad

#3030000000
b100000 aaaab

#3039400000
b1010010 aaaac

#3039650000
b1010010 aaaaa
b100000 aaaac

#3040000000
b1110111 aaaad

#3045150000
b100000 aaaaa
b1010010 aaaad

#3045400000
b1010010 aaaab
b100000 aaaad

#3070400000
b100000 aaaab

#3079800000
b1010010 aaaac

#3080050000
b1010010 aaaaa
b100000 aaaac

#3080400000
b1110111 aaaad

#3085550000
b100000 aaaaa
b1010010 aaaad

#3085800000
b1010010 aaaab
b100000 aaaad

#3110800000
b100000 aaaab

#3120200000
b1010010 aaaac

#3120450000
b1010010 aaaaa
b100000 aaaac

#3120800000
b1110111 aaaad

#3125950000
b100000 aaaaa
b1010010 aaaad

#3126200000
b1010010 aaaab
b100000 aaaad

#3151200000
b100000 aaaab

#3160600000
b1010010 aaaac

#3160850000
b1010010 aaaaa
b100000 aaaac

#3161200000
b1110111 aaaad

#3166350000
b100000 aaaaa
b1010010 aaaad

#3166600000
b1010010 aaaab
b100000 aaaad

#3191600000
b100000 aaaab

#3201000000
b1010010 aaaac

#3201250000
b1010010 aaaaa
b100000 aaaac

#3201600000
b1110111 aaaad

#3206750000
b100000 aaaaa
b1010010 aaaad

#3207000000
b1010010 aaaab
b100000 aaaad

#3232000000
b100000 aaaab

#3241400000
b1010010 aaaac

#3241650000
b1010010 aaaaa
b100000 aaaac

#3242000000
b1110111 aaaad

#3247150000
b100000 aaaaa
b1010010 aaaad

#3247400000
b1010010 aaaab
b100000 aaaad

#3272400000
b100000 aaaab

#3281800000
b1010010 aaaac

#3282050000
b1010010 aaaaa
b100000 aaaac

#3282400000
b1110111 aaaad

#3287550000
b100000 aaaaa
b1010010 aaaad

#3287800000
b1010010 aaaab
b100000 aaaad

#3312800000
b100000 aaaab

#3322200000
b1010010 aaaac

#3322450000
b1010010 aaaaa
b100000 aaaac

#3322800000
b1110111 aaaad

#3327950000
b100000 aaaaa
b1010010 aaaad

#3328200000
b1010010 aaaab
b100000 aaaad

#3353200000
b100000 aaaab

#3362600000
b1010010 aaaac

#3362850000
b1010010 aaaaa
b100000 aaaac

#3363200000
b1110111 aaaad

#3368350000
b100000 aaaaa
b1010010 aaaad

#3368600000
b1010010 aaaab
b100000 aaaad

#3393600000
b100000 aaaab

#3403000000
b1010010 aaaac

#3403250000
b1010010 aaaaa
b100000 aaaac

#3403600000
b1110111 aaaad

#3408750000
b100000 aaaaa
b1010010 aaaad

#3409000000
b1010010 aaaab
b100000 aaaad

#3434000000
b100000 aaaab

#3443400000
b1010010 aaaac

#3443650000
b1010010 aaaaa
b100000 aaaac

#3444000000
b1110111 aaaad

#3449150000
b100000 aaaaa
b1010010 aaaad

#3449400000
b1010010 aaaab
b100000 aaaad

#3474400000
b100000 aaaab

#3483800000
b1010010 aaaac

#3484050000
b1010010 aaaaa
b100000 aaaac

#3484400000
b1110111 aaaad

#3489550000
b100000 aaaaa
b1010010 aaaad

#3489800000
b1010010 aaaab
b100000 aaaad

#3514800000
b100000 aaaab

#3524200000
b1010010 aaaac

#3524450000
b1010010 aaaaa
b100000 aaaac

#3524800000
b1110111 aaaad

#3529950000
b100000 aaaaa
b1010010 aaaad

#3530200000
b1010010 aaaab
b100000 aaaad

#3555200000
b100000 aaaab

#3564600000
b1010010 aaaac

#3564850000
b1010010 aaaaa
b100000 aaaac

#3565200000
b1110111 aaaad

#3570350000
b100000 aaaaa
b1010010 aaaad

#3570600000
b1010010 aaaab
b100000 aaaad

#3595600000
b100000 aaaab

#3605000000
b1010010 aaaac

#3605250000
b1010010 aaaaa
b100000 aaaac

#3605600000
b1110111 aaaad

#3610750000
b100000 aaaaa
b1010010 aaaad

#3611000000
b1010010 aaaab
b100000 aaaad

#3636000000
b100000 aaaab

#3645400000
b1010010 aaaac

#3645650000
b1010010 aaaaa
b100000 aaaac

#3646000000
b1110111 aaaad

#3651150000
b100000 aaaaa
b1010010 aaaad

#3651400000
b1010010 aaaab
b100000 aaaad

#3676400000
b100000 aaaab

#3685800000
b1010010 aaaac

#3686050000
b1010010 aaaaa
b100000 aaaac

#3686400000
b1110111 aaaad

#3691550000
b100000 aaaaa
b1010010 aaaad

#3691800000
b1010010 aaaab
b100000 aaaad

#3716800000
b100000 aaaab

#3726200000
b1010010 aaaac

#3726450000
b1010010 aaaaa
b100000 aaaac

#3726800000
b1110111 aaaad

#3731950000
b100000 aaaaa
b1010010 aaaad

#3732200000
b1010010 aaaab
b100000 aaaad

#3757200000
b100000 aaaab

#3766600000
b1010010 aaaac

#3766850000
b1010010 aaaaa
b100000 aaaac

#3767200000
b1110111 aaaad

#3772350000
b100000 aaaaa
b1010010 aaaad

#3772600000
b1010010 aaaab
b100000 aaaad

#3797600000
b100000 aaaab

#3807000000
b1010010 aaaac

#3807250000
b1010010 aaaaa
b100000 aaaac

#3807600000
b1110111 aaaad

#3812750000
b100000 aaaaa
b1010010 aaaad

#3813000000
b1010010 aaaab
b100000 aaaad

#3838000000
b100000 aaaab

#3847400000
b1010010 aaaac

#3847650000
b1010010 aaaaa
b100000 aaaac

#3848000000
b1110111 aaaad

#3853150000
b100000 aaaaa
b1010010 aaaad

#3853400000
b1010010 aaaab
b100000 aaaad

#3878400000
b100000 aaaab

#3887800000
b1010010 aaaac

#3888050000
b1010010 aaaaa
b100000 aaaac

#3888400000
b1110111 aaaad

#3893550000
b100000 aaaaa
b1010010 aaaad

#3893800000
b1010010 aaaab
b100000 aaaad

#3918800000
b100000 aaaab

#3928200000
b1010010 aaaac

#3928450000
b1010010 aaaaa
b100000 aaaac

#3928800000
b1110111 aaaad

#3933950000
b100000 aaaaa
b1010010 aaaad

#3934200000
b1010010 aaaab
b100000 aaaad

#3959200000
b100000 aaaab

#3968600000
b1010010 aaaac

#3968850000
b1010010 aaaaa
b100000 aaaac

#3969200000
b1110111 aaaad

#3974350000
b100000 aaaaa
b1010010 aaaad

#3974600000
b1010010 aaaab
b100000 aaaad

#3999600000
b100000 aaaab

#4009000000
b1010010 aaaac

#4009250000
b1010010 aaaaa
b100000 aaaac

#4009600000
b1110111 aaaad

#4014750000
b100000 aaaaa
b1010010 aaaad

#4015000000
b1010010 aaaab
b100000 aaaad

